{
 "actions": [],
 "allow_rename": 1,
 "creation": "2023-08-22 08:38:46.027444",
 "default_view": "List",
 "doctype": "DocType",
 "editable_grid": 1,
 "engine": "InnoDB",
 "field_order": [
  "document_code",
  "description",
  "section_break_15",
  "comment",
  "mandatory"
 ],
 "fields": [
  {
   "fieldname": "document_code",
   "fieldtype": "Link",
   "in_list_view": 1,
   "label": "Document Code",
   "options": "Canopi Document Code",
   "reqd": 1,
   "unique": 1
  },
  {
   "fieldname": "description",
   "fieldtype": "Data",
   "label": "Document Name"
  },
  {
   "fieldname": "section_break_15",
   "fieldtype": "Section Break"
  },
  {
   "fieldname": "comment",
   "fieldtype": "Small Text",
   "label": "Comment"
  },
  {
   "fieldname": "mandatory",
   "fieldtype": "Select",
   "label": "Mandatory",
   "options": "Yes\nNo"
  }
 ],
 "index_web_pages_for_search": 1,
 "istable": 1,
 "links": [],
 "modified": "2023-08-22 08:38:46.027444",
 "modified_by": "Administrator",
 "module": "Trusteeship Platform",
 "name": "Canopi Document Based Compliances Checklist Description",
 "owner": "Administrator",
 "permissions": [],
 "sort_field": "modified",
 "sort_order": "DESC",
 "states": []
}
