{
 "charts": [
  {
   "chart_name": "ISIN List",
   "label": "ISIN List"
  }
 ],
 "content": "[{\"id\":\"nHbGzGqP2y\",\"type\":\"header\",\"data\":{\"text\":\"<span class=\\\"h4\\\">Ops Maker Dashboard</span>\",\"col\":12}},{\"id\":\"Gl84Q-Rq3z\",\"type\":\"quick_list\",\"data\":{\"quick_list_name\":\"Quotations Accepted\",\"col\":4}},{\"id\":\"3e6rctT5Ln\",\"type\":\"quick_list\",\"data\":{\"quick_list_name\":\"ToDo\",\"col\":4}},{\"id\":\"39kSdNu2oz\",\"type\":\"quick_list\",\"data\":{\"quick_list_name\":\"Canopi ISIN Monitoring\",\"col\":4}},{\"id\":\"lHCif1l7GD\",\"type\":\"spacer\",\"data\":{\"col\":12}},{\"id\":\"oC6-Du99aC\",\"type\":\"chart\",\"data\":{\"chart_name\":\"ISIN List\",\"col\":12}},{\"id\":\"KgDq4bedqV\",\"type\":\"shortcut\",\"data\":{\"shortcut_name\":\"Mandate List\",\"col\":4}},{\"id\":\"t6j8RKbcvO\",\"type\":\"shortcut\",\"data\":{\"shortcut_name\":\"Ops with deviation\",\"col\":4}},{\"id\":\"gq52PUKckf\",\"type\":\"shortcut\",\"data\":{\"shortcut_name\":\"ISIN Monitoring\",\"col\":4}}]",
 "creation": "2023-05-10 13:36:16.604962",
 "custom_blocks": [],
 "docstatus": 0,
 "doctype": "Workspace",
 "for_user": "",
 "hide_custom": 0,
 "icon": "dashboard-list",
 "idx": 0,
 "is_hidden": 0,
 "label": "Ops Maker Dashboard",
 "links": [],
 "modified": "2023-06-01 23:09:52.721045",
 "modified_by": "Administrator",
 "module": "Trusteeship Platform",
 "name": "Ops Maker Dashboard",
 "number_cards": [],
 "owner": "Administrator",
 "parent_page": "",
 "public": 1,
 "quick_lists": [
  {
   "document_type": "Quotation",
   "label": "Quotations Accepted",
   "quick_list_filter": "{\"workflow_state\":[\"=\",\"Accepted By Client\"]}"
  },
  {
   "document_type": "ToDo",
   "label": "ToDo"
  },
  {
   "document_type": "Canopi ISIN Monitoring",
   "label": "Canopi ISIN Monitoring"
  }
 ],
 "roles": [
  {
   "role": "Ops & Serv Maker"
  }
 ],
 "sequence_id": 35.0,
 "shortcuts": [
  {
   "color": "Grey",
   "doc_view": "List",
   "label": "Mandate List",
   "link_to": "ATSL Mandate List",
   "type": "DocType"
  },
  {
   "color": "Grey",
   "doc_view": "List",
   "label": "Ops with deviation",
   "link_to": "Opportunity",
   "stats_filter": "{\"workflow_state\":[\"=\",\"Approved\"]}",
   "type": "DocType"
  },
  {
   "color": "Grey",
   "doc_view": "List",
   "label": "ISIN Monitoring",
   "link_to": "Initial Investor ISIN",
   "type": "DocType"
  }
 ],
 "title": "Ops Maker Dashboard"
}
