{
 "actions": [],
 "allow_rename": 1,
 "creation": "2023-05-10 15:12:43.709847",
 "default_view": "List",
 "doctype": "DocType",
 "editable_grid": 1,
 "engine": "InnoDB",
 "field_order": [
  "merchant",
  "merchant_id",
  "payment_platform",
  "account_id",
  "event_id",
  "event",
  "payout_id",
  "fund_account_id",
  "contact_id",
  "payout_datetime",
  "authorization_datetime",
  "column_break_jui2z",
  "amount",
  "currency",
  "status",
  "purpose",
  "created_at",
  "fees",
  "tax",
  "approval_status",
  "approval_status_time",
  "column_break_jx01w",
  "utr",
  "mode",
  "reference_id",
  "batch_id",
  "fee_type",
  "notes",
  "section_break_dwh9u",
  "narration",
  "status_details",
  "description",
  "source",
  "reason",
  "section_break_t1kbp",
  "payload"
 ],
 "fields": [
  {
   "fieldname": "payment_platform",
   "fieldtype": "Link",
   "label": "Payment Platform",
   "options": "CP2P Payment Platform"
  },
  {
   "fieldname": "account_id",
   "fieldtype": "Data",
   "label": "Account ID"
  },
  {
   "fieldname": "event",
   "fieldtype": "Data",
   "label": "Event"
  },
  {
   "fieldname": "payout_id",
   "fieldtype": "Data",
   "label": "Payout ID"
  },
  {
   "fieldname": "fund_account_id",
   "fieldtype": "Data",
   "label": "Fund Account Id"
  },
  {
   "fieldname": "column_break_jui2z",
   "fieldtype": "Column Break"
  },
  {
   "fieldname": "amount",
   "fieldtype": "Currency",
   "label": "Amount",
   "options": "currency"
  },
  {
   "fieldname": "currency",
   "fieldtype": "Data",
   "label": "Currency"
  },
  {
   "fieldname": "status",
   "fieldtype": "Data",
   "label": "Status"
  },
  {
   "fieldname": "purpose",
   "fieldtype": "Data",
   "label": "Purpose"
  },
  {
   "fieldname": "narration",
   "fieldtype": "Text",
   "label": "Narration"
  },
  {
   "fieldname": "created_at",
   "fieldtype": "Datetime",
   "label": "Created At"
  },
  {
   "fieldname": "fees",
   "fieldtype": "Currency",
   "label": "Fees",
   "options": "currency"
  },
  {
   "fieldname": "tax",
   "fieldtype": "Currency",
   "label": "Tax",
   "options": "tax"
  },
  {
   "fieldname": "column_break_jx01w",
   "fieldtype": "Column Break"
  },
  {
   "fieldname": "utr",
   "fieldtype": "Data",
   "label": "UTR"
  },
  {
   "fieldname": "mode",
   "fieldtype": "Data",
   "label": "Mode"
  },
  {
   "fieldname": "reference_id",
   "fieldtype": "Data",
   "label": "Reference id"
  },
  {
   "fieldname": "batch_id",
   "fieldtype": "Data",
   "label": "Batch Id"
  },
  {
   "fieldname": "fee_type",
   "fieldtype": "Data",
   "label": "Fee Type"
  },
  {
   "fieldname": "status_details",
   "fieldtype": "Section Break",
   "label": "Status Details"
  },
  {
   "fieldname": "description",
   "fieldtype": "Small Text",
   "label": "Description"
  },
  {
   "fieldname": "source",
   "fieldtype": "Data",
   "label": "Source"
  },
  {
   "fieldname": "reason",
   "fieldtype": "Data",
   "label": "Reason"
  },
  {
   "fieldname": "section_break_t1kbp",
   "fieldtype": "Section Break"
  },
  {
   "fieldname": "payload",
   "fieldtype": "JSON",
   "label": "Payload"
  },
  {
   "fieldname": "event_id",
   "fieldtype": "Data",
   "label": "Event Id"
  },
  {
   "fetch_from": "merchant.merchant_id",
   "fieldname": "merchant_id",
   "fieldtype": "Data",
   "label": "Merchant Id"
  },
  {
   "fieldname": "merchant",
   "fieldtype": "Link",
   "label": "Merchant",
   "options": "CP2P Merchant"
  },
  {
   "fieldname": "contact_id",
   "fieldtype": "Link",
   "label": "Contact Id",
   "options": "CP2P Contacts"
  },
  {
   "fieldname": "approval_status",
   "fieldtype": "Data",
   "label": "Approval Status"
  },
  {
   "fieldname": "approval_status_time",
   "fieldtype": "Datetime",
   "hidden": 1,
   "label": "Approval Status Time"
  },
  {
   "fieldname": "section_break_dwh9u",
   "fieldtype": "Section Break"
  },
  {
   "fieldname": "notes",
   "fieldtype": "JSON",
   "label": "Notes"
  },
  {
   "fieldname": "payout_datetime",
   "fieldtype": "Datetime",
   "label": "Payout Datetime"
  },
  {
   "fieldname": "authorization_datetime",
   "fieldtype": "Datetime",
   "label": "Authorization DateTime"
  }
 ],
 "index_web_pages_for_search": 1,
 "links": [],
 "modified": "2023-07-08 00:08:54.689285",
 "modified_by": "Administrator",
 "module": "P2P",
 "name": "CP2P Payout Pending Event",
 "owner": "Administrator",
 "permissions": [
  {
   "create": 1,
   "delete": 1,
   "email": 1,
   "export": 1,
   "print": 1,
   "read": 1,
   "report": 1,
   "role": "System Manager",
   "share": 1,
   "write": 1
  },
  {
   "create": 1,
   "delete": 1,
   "email": 1,
   "export": 1,
   "print": 1,
   "read": 1,
   "report": 1,
   "role": "P2P Admin",
   "share": 1,
   "write": 1
  }
 ],
 "sort_field": "modified",
 "sort_order": "DESC",
 "states": []
}
