{
 "actions": [],
 "allow_rename": 1,
 "creation": "2022-07-12 18:19:26.131707",
 "doctype": "DocType",
 "editable_grid": 1,
 "engine": "InnoDB",
 "field_order": [
  "details_tab",
  "customer_code",
  "mandate_name",
  "column_break_4",
  "operations",
  "ops_servicing_rm",
  "column_break_2",
  "product_name",
  "tl_representative",
  "qr_code",
  "opportunity",
  "quotation",
  "pre_execution_details_section",
  "pre_execution_details_html",
  "pre_execution_details",
  "common_documents_tab",
  "common_documents_html",
  "type_of_security_tab",
  "immovable_asset_section",
  "immovable_asset_html",
  "movable_asset_section",
  "movable_asset_html",
  "pledge_section",
  "pledge_html",
  "personal_guarantee_section",
  "personal_guarantee_html",
  "corporate_guarantee_section",
  "corporate_guarantee_html",
  "ndu_section",
  "ndu_html",
  "intangible_asset_section",
  "intangible_asset_html",
  "motor_vehicle_section",
  "motor_vehicle_html",
  "financial_asset_section",
  "financial_asset_html",
  "assignment_of_rights_section",
  "assignment_of_rights_html",
  "current_asset_section",
  "current_asset_html",
  "debt_service_reserve_account_section",
  "debt_service_reserve_account_html",
  "others_section",
  "others_html",
  "type_of_security_details",
  "annexure_a_tab",
  "section_break_nxoc5",
  "view_annexure_a",
  "column_break_x6vix",
  "attach_annexure_a",
  "download_signed_annexure_a_html",
  "annexure_a_s3_key",
  "column_break_sgzqg",
  "annexure_a_approval",
  "section_break_l4bp2",
  "annexure_a_status",
  "letter_from",
  "serial_no_link",
  "serial_no",
  "face_value",
  "nominal_value",
  "letter_subject",
  "letter_body",
  "company",
  "cnp_registered_address",
  "cnp_corporate_address",
  "authorised_signatory",
  "signatory_full_name",
  "signatory_designation",
  "amended_from",
  "is_annexure_draft",
  "completion_percent",
  "activities_tab",
  "open_activities_html",
  "all_activities_section",
  "all_activities_html",
  "comments",
  "notes_html",
  "notes"
 ],
 "fields": [
  {
   "fieldname": "immovable_asset_html",
   "fieldtype": "HTML",
   "label": "Immovable Asset"
  },
  {
   "fieldname": "column_break_2",
   "fieldtype": "Column Break"
  },
  {
   "collapsible": 1,
   "fieldname": "immovable_asset_section",
   "fieldtype": "Section Break",
   "label": "Immovable Asset"
  },
  {
   "fieldname": "operations",
   "fieldtype": "Link",
   "label": "CL Code",
   "options": "ATSL Mandate List",
   "set_only_once": 1,
   "unique": 1
  },
  {
   "collapsible": 1,
   "fieldname": "movable_asset_section",
   "fieldtype": "Section Break",
   "label": "Movable Asset"
  },
  {
   "fieldname": "movable_asset_html",
   "fieldtype": "HTML",
   "label": "Movable Asset"
  },
  {
   "collapsible": 1,
   "fieldname": "pledge_section",
   "fieldtype": "Section Break",
   "label": "Pledge"
  },
  {
   "fieldname": "pledge_html",
   "fieldtype": "HTML",
   "label": "Pledge"
  },
  {
   "collapsible": 1,
   "fieldname": "personal_guarantee_section",
   "fieldtype": "Section Break",
   "label": "Personal Guarantee"
  },
  {
   "fieldname": "personal_guarantee_html",
   "fieldtype": "HTML",
   "label": "Personal Guarantee"
  },
  {
   "collapsible": 1,
   "fieldname": "corporate_guarantee_section",
   "fieldtype": "Section Break",
   "label": "Corporate Guarantee"
  },
  {
   "fieldname": "corporate_guarantee_html",
   "fieldtype": "HTML",
   "label": "Corporate Guarantee"
  },
  {
   "collapsible": 1,
   "fieldname": "ndu_section",
   "fieldtype": "Section Break",
   "label": "NDU"
  },
  {
   "fieldname": "ndu_html",
   "fieldtype": "HTML",
   "label": "NDU"
  },
  {
   "collapsible": 1,
   "fieldname": "intangible_asset_section",
   "fieldtype": "Section Break",
   "label": "Intangible Asset"
  },
  {
   "fieldname": "intangible_asset_html",
   "fieldtype": "HTML",
   "label": "Intangible Asset"
  },
  {
   "collapsible": 1,
   "fieldname": "others_section",
   "fieldtype": "Section Break",
   "label": "Others"
  },
  {
   "fieldname": "others_html",
   "fieldtype": "HTML",
   "label": "Others"
  },
  {
   "fieldname": "letter_from",
   "fieldtype": "Select",
   "label": "Letter From",
   "options": "ATSL\nAXIS"
  },
  {
   "fieldname": "letter_subject",
   "fieldtype": "Small Text",
   "label": "Letter Subject"
  },
  {
   "fieldname": "letter_body",
   "fieldtype": "Long Text",
   "label": "Letter Body",
   "read_only": 1
  },
  {
   "fieldname": "company",
   "fieldtype": "Data",
   "label": "Company Name",
   "read_only": 1
  },
  {
   "fieldname": "authorised_signatory",
   "fieldtype": "Link",
   "label": "Authorised Signatory",
   "options": "User"
  },
  {
   "fieldname": "cnp_registered_address",
   "fieldtype": "Link",
   "label": "Registered Address",
   "options": "Address"
  },
  {
   "fieldname": "cnp_corporate_address",
   "fieldtype": "Link",
   "label": "Corporate Office",
   "options": "Address"
  },
  {
   "fieldname": "type_of_security_details",
   "fieldtype": "Code",
   "hidden": 1,
   "label": "details"
  },
  {
   "fieldname": "product_name",
   "fieldtype": "Link",
   "in_list_view": 1,
   "label": "Product Name",
   "options": "Item",
   "read_only": 1,
   "reqd": 1
  },
  {
   "fieldname": "face_value",
   "fieldtype": "Int",
   "label": "Face Value"
  },
  {
   "fieldname": "nominal_value",
   "fieldtype": "Int",
   "label": "Nominal Value"
  },
  {
   "fieldname": "qr_code",
   "fieldtype": "Long Text",
   "hidden": 1,
   "label": "QR Code"
  },
  {
   "fieldname": "ops_servicing_rm",
   "fieldtype": "Link",
   "in_list_view": 1,
   "label": "Ops & Servicing RM",
   "options": "User",
   "reqd": 1
  },
  {
   "fieldname": "tl_representative",
   "fieldtype": "Link",
   "in_list_view": 1,
   "label": "TL Representative",
   "options": "User",
   "reqd": 1
  },
  {
   "depends_on": "eval: doc.__islocal ===1",
   "fieldname": "serial_no_link",
   "fieldtype": "Link",
   "label": "Serial No.",
   "mandatory_depends_on": "eval: doc.product_name === \"DTE\"",
   "options": "Canopi Serial Number",
   "set_only_once": 1
  },
  {
   "fieldname": "serial_no",
   "fieldtype": "Data",
   "hidden": 1,
   "label": "Serial Code"
  },
  {
   "fieldname": "amended_from",
   "fieldtype": "Link",
   "label": "Amended From",
   "no_copy": 1,
   "options": "Canopi Pre Execution Checklist",
   "print_hide": 1,
   "read_only": 1
  },
  {
   "collapsible": 1,
   "fieldname": "motor_vehicle_section",
   "fieldtype": "Section Break",
   "label": "Motor Vehicle"
  },
  {
   "fieldname": "motor_vehicle_html",
   "fieldtype": "HTML",
   "label": "Motor Vehicle"
  },
  {
   "collapsible": 1,
   "fieldname": "financial_asset_section",
   "fieldtype": "Section Break",
   "label": "Financial Asset"
  },
  {
   "fieldname": "financial_asset_html",
   "fieldtype": "HTML",
   "label": "Financial Asset"
  },
  {
   "collapsible": 1,
   "fieldname": "assignment_of_rights_section",
   "fieldtype": "Section Break",
   "label": "Assignment Of Rights"
  },
  {
   "fieldname": "assignment_of_rights_html",
   "fieldtype": "HTML",
   "label": "Assignment Of Rights"
  },
  {
   "collapsible": 1,
   "fieldname": "current_asset_section",
   "fieldtype": "Section Break",
   "label": "Current Asset"
  },
  {
   "fieldname": "current_asset_html",
   "fieldtype": "HTML",
   "label": "Current Asset"
  },
  {
   "collapsible": 1,
   "fieldname": "debt_service_reserve_account_section",
   "fieldtype": "Section Break",
   "label": "Debt Service Reserve Account (DSRA)"
  },
  {
   "fieldname": "debt_service_reserve_account_html",
   "fieldtype": "HTML",
   "label": "Debt Service Reserve Account (DSRA)"
  },
  {
   "fieldname": "opportunity",
   "fieldtype": "Link",
   "hidden": 1,
   "label": "Opportunity",
   "options": "Opportunity"
  },
  {
   "fieldname": "quotation",
   "fieldtype": "Link",
   "hidden": 1,
   "label": "Quotation",
   "options": "Quotation"
  },
  {
   "default": "0",
   "fieldname": "is_annexure_draft",
   "fieldtype": "Check",
   "hidden": 1,
   "label": "Is Annexure A Draft"
  },
  {
   "fieldname": "completion_percent",
   "fieldtype": "Percent",
   "hidden": 1,
   "label": "Completion Percent"
  },
  {
   "fieldname": "mandate_name",
   "fieldtype": "Data",
   "label": "Mandate Name",
   "reqd": 1
  },
  {
   "fieldname": "details_tab",
   "fieldtype": "Tab Break",
   "label": "Pre Execution Checklist"
  },
  {
   "depends_on": "eval:!doc.__islocal",
   "fieldname": "activities_tab",
   "fieldtype": "Tab Break",
   "label": "Activities"
  },
  {
   "fieldname": "open_activities_html",
   "fieldtype": "HTML",
   "label": "Open Activities HTML"
  },
  {
   "fieldname": "all_activities_section",
   "fieldtype": "Section Break",
   "label": "All Activities"
  },
  {
   "fieldname": "all_activities_html",
   "fieldtype": "HTML",
   "label": "All Activities HTML"
  },
  {
   "depends_on": "eval:!doc.__islocal",
   "fieldname": "comments",
   "fieldtype": "Tab Break",
   "label": "Comments"
  },
  {
   "fieldname": "notes_html",
   "fieldtype": "HTML",
   "label": "Notes HTML"
  },
  {
   "fieldname": "notes",
   "fieldtype": "Table",
   "hidden": 1,
   "label": "Notes",
   "no_copy": 1,
   "options": "CRM Note"
  },
  {
   "depends_on": "eval: doc.product_name === 'DTE'",
   "fieldname": "annexure_a_tab",
   "fieldtype": "Tab Break",
   "label": "Annexure A"
  },
  {
   "fieldname": "pre_execution_details_html",
   "fieldtype": "HTML",
   "label": "Pre Execution Details"
  },
  {
   "fieldname": "pre_execution_details",
   "fieldtype": "Code",
   "hidden": 1,
   "label": "Pre Execution Details"
  },
  {
   "fieldname": "customer_code",
   "fieldtype": "Link",
   "label": "Customer Code",
   "options": "Customer",
   "read_only": 1
  },
  {
   "fieldname": "column_break_4",
   "fieldtype": "Column Break"
  },
  {
   "collapsible": 1,
   "depends_on": "eval: doc.product_name == 'EA' || doc.product_name == 'FA' || doc.product_name == 'INVIT' || doc.product_name == 'REIT' ",
   "fieldname": "pre_execution_details_section",
   "fieldtype": "Section Break",
   "label": "Pre Execution Details"
  },
  {
   "fieldname": "annexure_a_status",
   "fieldtype": "Select",
   "label": "Status",
   "options": "Draft\nPending for Approval\nApproved\nRejected",
   "read_only": 1
  },
  {
   "fieldname": "view_annexure_a",
   "fieldtype": "Button",
   "label": "View Draft Annexure A"
  },
  {
   "fieldname": "annexure_a_approval",
   "fieldtype": "Button",
   "label": "Send for Approval"
  },
  {
   "fieldname": "section_break_l4bp2",
   "fieldtype": "Section Break"
  },
  {
   "fieldname": "column_break_x6vix",
   "fieldtype": "Column Break"
  },
  {
   "depends_on": "eval: (doc.product_name === 'DTE' || doc.product_name === 'STE') && doc.__islocal!==1",
   "fieldname": "section_break_nxoc5",
   "fieldtype": "Section Break"
  },
  {
   "fieldname": "column_break_sgzqg",
   "fieldtype": "Column Break"
  },
  {
   "depends_on": "eval: doc.docstatus===0;",
   "fieldname": "attach_annexure_a",
   "fieldtype": "Button",
   "label": "Attach Signed Annexure A"
  },
  {
   "fieldname": "annexure_a_s3_key",
   "fieldtype": "Long Text",
   "hidden": 1,
   "label": "Annexure A S3 Key"
  },
  {
   "fieldname": "signatory_full_name",
   "fieldtype": "Data",
   "label": "Full Name",
   "read_only": 1
  },
  {
   "fieldname": "signatory_designation",
   "fieldtype": "Data",
   "label": "Designation"
  },
  {
   "fieldname": "download_signed_annexure_a_html",
   "fieldtype": "HTML"
  },
  {
   "fieldname": "common_documents_tab",
   "fieldtype": "Tab Break",
   "label": "Common Documents"
  },
  {
   "fieldname": "common_documents_html",
   "fieldtype": "HTML",
   "label": "Common Documents"
  },
  {
   "depends_on": "eval: (doc.product_name == 'DTE') || (doc.product_name== 'STE') ",
   "fieldname": "type_of_security_tab",
   "fieldtype": "Tab Break",
   "label": "Type Of Security"
  }
 ],
 "index_web_pages_for_search": 1,
 "is_submittable": 1,
 "links": [
  {
   "link_doctype": "Canopi Approval",
   "link_fieldname": "pre_execution"
  }
 ],
 "modified": "2023-09-22 16:36:05.951970",
 "modified_by": "Administrator",
 "module": "Trusteeship Platform",
 "name": "Canopi Pre Execution Checklist",
 "owner": "Administrator",
 "permissions": [
  {
   "create": 1,
   "delete": 1,
   "email": 1,
   "export": 1,
   "print": 1,
   "read": 1,
   "report": 1,
   "role": "System Manager",
   "share": 1,
   "write": 1
  }
 ],
 "sort_field": "modified",
 "sort_order": "DESC",
 "states": []
}
