{
  "actions": [],
  "allow_rename": 1,
  "autoname": "format:TRN-{facility_id}",
  "creation": "2023-03-01 21:05:18.313672",
  "default_view": "List",
  "doctype": "DocType",
  "editable_grid": 1,
  "engine": "InnoDB",
  "field_order": [
    "transaction_details_fa",
    "no_of_tranches",
    "column_break_vqev5",
    "facility_id",
    "tranche_details_section",
    "tranche_details"
  ],
  "fields": [
    {
      "depends_on": "eval: doc.transaction_details_fa",
      "fieldname": "facility_id",
      "fieldtype": "Link",
      "label": "Facility ID",
      "options": "Canopi FA Details",
      "reqd": 1
    },
    {
      "fieldname": "no_of_tranches",
      "fieldtype": "Int",
      "in_list_view": 1,
      "label": "No. of Tranches",
      "reqd": 1
    },
    {
      "fieldname": "column_break_vqev5",
      "fieldtype": "Column Break"
    },
    {
      "fieldname": "transaction_details_fa",
      "fieldtype": "Link",
      "label": "Transaction Details-FA",
      "options": "Canopi Transaction Details-FA",
      "reqd": 1
    },
    {
      "fieldname": "tranche_details",
      "fieldtype": "Table",
      "label": "Tranche Details",
      "options": "Canopi Tranche SL Details"
    },
    {
      "fieldname": "tranche_details_section",
      "fieldtype": "Section Break",
      "label": "Tranche Details"
    }
  ],
  "index_web_pages_for_search": 1,
  "links": [],
  "modified": "2023-03-02 19:54:45.920847",
  "modified_by": "Administrator",
  "module": "Trusteeship Platform",
  "name": "Canopi Tranche Details",
  "naming_rule": "Expression (old style)",
  "owner": "Administrator",
  "permissions": [
    {
      "create": 1,
      "delete": 1,
      "email": 1,
      "export": 1,
      "print": 1,
      "read": 1,
      "report": 1,
      "role": "System Manager",
      "share": 1,
      "write": 1
    }
  ],
  "sort_field": "modified",
  "sort_order": "DESC",
  "states": []
}
