{
  "actions": [],
  "allow_rename": 1,
  "creation": "2022-07-13 13:21:26.965077",
  "doctype": "DocType",
  "editable_grid": 1,
  "engine": "InnoDB",
  "field_order": [
    "transaction_details_name",
    "type_of_asset_holder",
    "relationship_with_asset_owner",
    "type_of_asset_ownership",
    "leasor_name",
    "lease_end_date",
    "asset_address",
    "property_id",
    "asset_address_1",
    "asset_address_2",
    "asset_address_3",
    "column_break_12",
    "asset_owner_name",
    "pan_number",
    "lei_name",
    "iso_country_code",
    "city",
    "state",
    "pincode",
    "country",
    "landmark"
  ],
  "fields": [
    {
      "fieldname": "transaction_details_name",
      "fieldtype": "Link",
      "label": "Transaction Details",
      "options": "Transaction Details"
    },
    {
      "fieldname": "type_of_asset_holder",
      "fieldtype": "Select",
      "label": "Type of Asset Holder"
    },
    {
      "fieldname": "relationship_with_asset_owner",
      "fieldtype": "Select",
      "label": "Relationship with Asset Owner"
    },
    {
      "fieldname": "type_of_asset_ownership",
      "fieldtype": "Select",
      "label": "Type of Asset Ownership"
    },
    {
      "fieldname": "leasor_name",
      "fieldtype": "Data",
      "label": "Leasor Name"
    },
    {
      "fieldname": "lease_end_date",
      "fieldtype": "Date",
      "label": "Lease end Date"
    },
    {
      "fieldname": "asset_address",
      "fieldtype": "Data",
      "label": "Asset Address"
    },
    {
      "fieldname": "property_id",
      "fieldtype": "Data",
      "label": "Property ID"
    },
    {
      "fieldname": "asset_address_1",
      "fieldtype": "Data",
      "label": "Asset Address 1"
    },
    {
      "fieldname": "asset_address_2",
      "fieldtype": "Data",
      "label": "Asset Address 2"
    },
    {
      "fieldname": "asset_address_3",
      "fieldtype": "Data",
      "label": "Asset Address 3"
    },
    {
      "fieldname": "column_break_12",
      "fieldtype": "Column Break"
    },
    {
      "fieldname": "asset_owner_name",
      "fieldtype": "Data",
      "label": "Asset Owner Name"
    },
    {
      "fieldname": "lei_name",
      "fieldtype": "Data",
      "label": "LEI Name"
    },
    {
      "fieldname": "iso_country_code",
      "fieldtype": "Data",
      "label": "ISO Country Code"
    },
    {
      "fieldname": "city",
      "fieldtype": "Data",
      "label": "City"
    },
    {
      "fieldname": "state",
      "fieldtype": "Data",
      "label": "State"
    },
    {
      "fieldname": "pincode",
      "fieldtype": "Data",
      "label": "Pincode"
    },
    {
      "fieldname": "country",
      "fieldtype": "Data",
      "label": "Country"
    },
    {
      "fieldname": "landmark",
      "fieldtype": "Data",
      "label": "Landmark"
    },
    {
      "fieldname": "pan_number",
      "fieldtype": "Data",
      "label": "PAN Number"
    }
  ],
  "index_web_pages_for_search": 1,
  "links": [],
  "modified": "2023-05-01 15:38:27.509250",
  "modified_by": "Administrator",
  "module": "Trusteeship Platform",
  "name": "Transaction Details Assets Owner Details",
  "owner": "Administrator",
  "permissions": [
    {
      "create": 1,
      "delete": 1,
      "email": 1,
      "export": 1,
      "print": 1,
      "read": 1,
      "report": 1,
      "role": "System Manager",
      "share": 1,
      "write": 1
    }
  ],
  "sort_field": "modified",
  "sort_order": "DESC",
  "states": []
}
