{
  "actions": [],
  "allow_rename": 1,
  "autoname": "field:title",
  "creation": "2023-02-10 13:02:23.501894",
  "default_view": "List",
  "doctype": "DocType",
  "editable_grid": 1,
  "engine": "InnoDB",
  "field_order": [
    "title",
    "fiscal_year",
    "company",
    "type",
    "report_html",
    "report_details",
    "calc_details"
  ],
  "fields": [
    {
      "fieldname": "title",
      "fieldtype": "Data",
      "label": "Title",
      "read_only": 1,
      "unique": 1
    },
    {
      "fieldname": "fiscal_year",
      "fieldtype": "Link",
      "label": "Fiscal Year",
      "options": "Fiscal Year",
      "read_only": 1
    },
    {
      "fieldname": "calc_details",
      "fieldtype": "Code",
      "hidden": 1
    },
    {
      "fieldname": "report_html",
      "fieldtype": "HTML"
    },
    {
      "fieldname": "report_details",
      "fieldtype": "Code",
      "hidden": 1
    },
    {
      "fieldname": "company",
      "fieldtype": "Link",
      "label": "Company",
      "options": "Company",
      "read_only": 1
    },
    {
      "fieldname": "type",
      "fieldtype": "Data",
      "label": "Type",
      "read_only": 1
    }
  ],
  "index_web_pages_for_search": 1,
  "links": [],
  "modified": "2023-04-04 14:25:27.216763",
  "modified_by": "Administrator",
  "module": "Trusteeship Platform",
  "name": "Canopi Reports",
  "naming_rule": "By fieldname",
  "owner": "Administrator",
  "permissions": [
    {
      "create": 1,
      "delete": 1,
      "email": 1,
      "export": 1,
      "print": 1,
      "read": 1,
      "report": 1,
      "role": "System Manager",
      "share": 1,
      "write": 1
    }
  ],
  "sort_field": "modified",
  "sort_order": "DESC",
  "states": []
}
