{
  "actions": [],
  "allow_rename": 1,
  "creation": "2023-03-05 23:45:19.310285",
  "doctype": "DocType",
  "editable_grid": 1,
  "engine": "InnoDB",
  "field_order": [
    "facility_name",
    "borrower_name",
    "column_break_fbml7",
    "tranche_sl",
    "lender_name",
    "loan_details_section",
    "loan_link",
    "financial_institution_code",
    "loan_amount",
    "interest_period_from",
    "no_of_days",
    "libor_euribor",
    "rate_of_interest_year",
    "installment",
    "balance_amount",
    "column_break_1a51h",
    "currency",
    "loan_os",
    "interest_period_to",
    "type_of_interest_rate",
    "margin",
    "interest_amount",
    "total_amount_payable"
  ],
  "fields": [
    {
      "fieldname": "facility_name",
      "fieldtype": "Link",
      "label": "Facility Name",
      "options": "Canopi FA Details"
    },
    {
      "fieldname": "borrower_name",
      "fieldtype": "Link",
      "label": "Borrower Name",
      "options": "Customer"
    },
    {
      "fieldname": "column_break_fbml7",
      "fieldtype": "Column Break"
    },
    {
      "fieldname": "tranche_sl",
      "fieldtype": "Link",
      "label": "Tranche SL",
      "options": "Canopi Tranche Details"
    },
    {
      "fieldname": "lender_name",
      "fieldtype": "Link",
      "label": "Lender Name",
      "options": "Canopi Lender"
    },
    {
      "fieldname": "loan_details_section",
      "fieldtype": "Section Break",
      "label": "Loan Details"
    },
    {
      "allow_on_submit": 1,
      "fieldname": "loan_link",
      "fieldtype": "Link",
      "label": "Loan Link",
      "options": "Loan",
      "read_only_depends_on": "eval:doc.docstatus==0"
    },
    {
      "fieldname": "financial_institution_code",
      "fieldtype": "Data",
      "label": "Financial Institution Code"
    },
    {
      "fieldname": "loan_amount",
      "fieldtype": "Int",
      "label": "Loan Amount"
    },
    {
      "fieldname": "interest_period_from",
      "fieldtype": "Date",
      "label": "Interest Period From"
    },
    {
      "fieldname": "no_of_days",
      "fieldtype": "Int",
      "label": "No. Of Days",
      "read_only": 1
    },
    {
      "fieldname": "libor_euribor",
      "fieldtype": "Float",
      "label": "LIBOR/EURIBOR"
    },
    {
      "fieldname": "rate_of_interest_year",
      "fieldtype": "Float",
      "label": "Rate of Interest (%)/Year",
      "read_only": 1
    },
    {
      "fieldname": "installment",
      "fieldtype": "Float",
      "label": "Installment"
    },
    {
      "fieldname": "balance_amount",
      "fieldtype": "Int",
      "label": "Balance Amount"
    },
    {
      "fieldname": "column_break_1a51h",
      "fieldtype": "Column Break"
    },
    {
      "fieldname": "currency",
      "fieldtype": "Link",
      "label": "Currency",
      "options": "Currency"
    },
    {
      "fieldname": "loan_os",
      "fieldtype": "Int",
      "label": "Loan O/S"
    },
    {
      "fieldname": "interest_period_to",
      "fieldtype": "Date",
      "label": "Interest Period To"
    },
    {
      "fieldname": "type_of_interest_rate",
      "fieldtype": "Select",
      "label": "Type of Interest Rate",
      "options": "LIBOR\nEURIBOR"
    },
    {
      "fieldname": "margin",
      "fieldtype": "Float",
      "label": "Margin"
    },
    {
      "fieldname": "interest_amount",
      "fieldtype": "Int",
      "label": "Interest Amount"
    },
    {
      "fieldname": "total_amount_payable",
      "fieldtype": "Int",
      "label": "Total Amount Payable"
    }
  ],
  "index_web_pages_for_search": 1,
  "istable": 1,
  "links": [],
  "modified": "2023-03-08 00:57:26.019968",
  "modified_by": "Administrator",
  "module": "Trusteeship Platform",
  "name": "Canopi Lender Linking With Loan Details",
  "owner": "Administrator",
  "permissions": [],
  "sort_field": "modified",
  "sort_order": "DESC",
  "states": []
}
