{
  "actions": [],
  "allow_rename": 1,
  "creation": "2023-02-02 17:44:44.655754",
  "default_view": "List",
  "doctype": "DocType",
  "editable_grid": 1,
  "engine": "InnoDB",
  "field_order": [
    "account_name",
    "provider",
    "client_name",
    "dp_name",
    "dp_id",
    "client_id"
  ],
  "fields": [
    {
      "fieldname": "client_name",
      "fieldtype": "Data",
      "in_list_view": 1,
      "label": "Client Name",
      "reqd": 1
    },
    {
      "fieldname": "dp_name",
      "fieldtype": "Data",
      "in_list_view": 1,
      "label": "DP Name",
      "reqd": 1
    },
    {
      "fieldname": "dp_id",
      "fieldtype": "Data",
      "label": "DP ID",
      "reqd": 1
    },
    {
      "fieldname": "client_id",
      "fieldtype": "Data",
      "in_list_view": 1,
      "label": "Client ID",
      "reqd": 1
    },
    {
      "fieldname": "account_name",
      "fieldtype": "Link",
      "label": "Account ",
      "options": "Canopi Equity Account",
      "reqd": 1
    },
    {
      "fieldname": "provider",
      "fieldtype": "Link",
      "label": "Provider",
      "options": "Canopi Equity Provider",
      "reqd": 1
    }
  ],
  "index_web_pages_for_search": 1,
  "links": [],
  "modified": "2023-02-03 22:19:05.791035",
  "modified_by": "Administrator",
  "module": "Trusteeship Platform",
  "name": "Canopi Demat Account",
  "owner": "Administrator",
  "permissions": [
    {
      "create": 1,
      "delete": 1,
      "email": 1,
      "export": 1,
      "print": 1,
      "read": 1,
      "report": 1,
      "role": "System Manager",
      "share": 1,
      "write": 1
    }
  ],
  "sort_field": "modified",
  "sort_order": "DESC",
  "states": []
}
