{
 "actions": [],
 "allow_rename": 1,
 "autoname": "TRANS.#####",
 "creation": "2022-07-07 11:38:46.331968",
 "doctype": "DocType",
 "editable_grid": 1,
 "engine": "InnoDB",
 "field_order": [
  "transaction_details_tab",
  "operations",
  "cnp_customer_code",
  "person_name",
  "column_break_5",
  "mandate_name",
  "opportunity",
  "column_break_8",
  "product_name",
  "quotation",
  "view_offer_letter",
  "isin_info_section",
  "face_value",
  "mode_of_allotment",
  "redeemable",
  "column_break_xjqcr",
  "guaranteed",
  "secured",
  "series_allowed",
  "column_break_hmvin",
  "taxable",
  "listedunlisted",
  "privatepublic",
  "tenor_section",
  "years",
  "column_break_4wx5c",
  "months",
  "column_break_tvcfi",
  "days",
  "unencumbered_section",
  "document_type",
  "file_name",
  "encumbered_section",
  "charge_holder_name",
  "charge_id_numberas_per_roc",
  "charge_amount",
  "charge_holder_noc",
  "column_break_31",
  "charge_type",
  "nature_of_charge",
  "assets_owner_details_section",
  "assets_owner_details_html",
  "map_asset_for_the_debenture_ine_section",
  "map_asset_for_the_debenture_ine",
  "transaction_details_section",
  "type_of_services",
  "constitution_party_wise",
  "column_break_23",
  "other_services",
  "party_role",
  "no_escrow_parties",
  "name_of_sponsor_section",
  "canopi_transaction_details_sponsor",
  "name_of_settlor_section",
  "canopi_transaction_details_settlor",
  "name_of_trust_section",
  "name_of_trust",
  "spvs_section",
  "no_of_spvs",
  "number_of_projects",
  "product_type",
  "valuation_of_trust_approx",
  "upfront_acquire",
  "column_break_45",
  "trust_size_in_crores",
  "investment_manager_name",
  "to_be_acquire",
  "sector",
  "project_manager_name",
  "dees_section",
  "initial_fee",
  "column_break_42",
  "annual_fee",
  "column_break_44",
  "one_time_fee",
  "immovable_asset_section",
  "transaction_immovable",
  "immovable_asset_html",
  "motor_vehicle_section",
  "transaction_motor",
  "motor_vehicle_html",
  "intangible_asset_section",
  "transaction_intangible",
  "intangible_asset_html",
  "financial_asset_section",
  "transaction_financial",
  "financial_asset_html",
  "assignment_of_rights_section",
  "transaction_assignment",
  "assignment_of_rights_html",
  "guarantee_section",
  "transaction_guarantee",
  "guarantee_html",
  "movable_fixed_asset_section",
  "transaction_movable_fixed",
  "movable_fixed_asset_html",
  "current_asset_section",
  "transaction_current",
  "current_asset_html",
  "debt_service_reserve_account_dsra_section",
  "transaction_dsra",
  "dsra_html",
  "amended_from",
  "activities_tab",
  "open_activities_html",
  "all_activities_section",
  "all_activities_html",
  "notes_tab",
  "notes_html",
  "notes"
 ],
 "fields": [
  {
   "fieldname": "operations",
   "fieldtype": "Link",
   "in_list_view": 1,
   "label": "CL Code",
   "options": "ATSL Mandate List",
   "reqd": 1
  },
  {
   "collapsible": 1,
   "depends_on": "eval: doc.product_name !== \"EA\" && doc.product_name !== \"REIT\" && doc.product_name !== \"INVIT\";",
   "fieldname": "immovable_asset_section",
   "fieldtype": "Tab Break",
   "label": "Immovable Asset"
  },
  {
   "fieldname": "immovable_asset_html",
   "fieldtype": "HTML",
   "label": "Immovable Asset"
  },
  {
   "fieldname": "amended_from",
   "fieldtype": "Link",
   "label": "Amended From",
   "no_copy": 1,
   "options": "Transaction Details",
   "print_hide": 1,
   "read_only": 1
  },
  {
   "collapsible": 1,
   "depends_on": "eval: doc.product_name !== \"EA\" && doc.product_name !== \"REIT\" && doc.product_name !== \"INVIT\";",
   "fieldname": "map_asset_for_the_debenture_ine_section",
   "fieldtype": "Section Break",
   "label": "Map Asset For The Debenture INE"
  },
  {
   "fieldname": "map_asset_for_the_debenture_ine",
   "fieldtype": "Table",
   "options": "Map Asset For The Debenture INE"
  },
  {
   "collapsible": 1,
   "depends_on": "eval: doc.product_name !== \"EA\" && doc.product_name !== \"REIT\" && doc.product_name !== \"INVIT\";",
   "fieldname": "motor_vehicle_section",
   "fieldtype": "Tab Break",
   "label": "Motor Vehicle"
  },
  {
   "fieldname": "motor_vehicle_html",
   "fieldtype": "HTML",
   "label": "Motor Vehicle"
  },
  {
   "collapsible": 1,
   "depends_on": "eval: doc.product_name !== \"EA\" && doc.product_name !== \"REIT\" && doc.product_name !== \"INVIT\";",
   "fieldname": "intangible_asset_section",
   "fieldtype": "Tab Break",
   "label": "Intangible Asset"
  },
  {
   "fieldname": "intangible_asset_html",
   "fieldtype": "HTML",
   "label": "Intangible Asset"
  },
  {
   "collapsible": 1,
   "depends_on": "eval: doc.product_name !== \"EA\" && doc.product_name !== \"REIT\";",
   "fieldname": "financial_asset_section",
   "fieldtype": "Tab Break",
   "label": "Financial Asset"
  },
  {
   "fieldname": "financial_asset_html",
   "fieldtype": "HTML",
   "label": "Financial Asset"
  },
  {
   "collapsible": 1,
   "depends_on": "eval: doc.product_name !== \"EA\" && doc.product_name !== \"REIT\" && doc.product_name !== \"INVIT\";",
   "fieldname": "assignment_of_rights_section",
   "fieldtype": "Tab Break",
   "label": "Assignment of Rights"
  },
  {
   "fieldname": "assignment_of_rights_html",
   "fieldtype": "HTML",
   "label": "Assignment of Rights"
  },
  {
   "collapsible": 1,
   "depends_on": "eval: doc.product_name !== \"EA\" && doc.product_name !== \"REIT\" && doc.product_name !== \"INVIT\";",
   "fieldname": "movable_fixed_asset_section",
   "fieldtype": "Tab Break",
   "label": "Movable Fixed Asset"
  },
  {
   "fieldname": "movable_fixed_asset_html",
   "fieldtype": "HTML",
   "label": "Movable Fixed Asset"
  },
  {
   "collapsible": 1,
   "depends_on": "eval: doc.product_name !== \"EA\" && doc.product_name !== \"REIT\" && doc.product_name !== \"INVIT\";",
   "fieldname": "current_asset_section",
   "fieldtype": "Tab Break",
   "label": "Current Asset"
  },
  {
   "fieldname": "current_asset_html",
   "fieldtype": "HTML",
   "label": "Current Asset"
  },
  {
   "collapsible": 1,
   "depends_on": "eval: doc.product_name !== \"EA\" && doc.product_name !== \"REIT\" && doc.product_name !== \"INVIT\";",
   "fieldname": "debt_service_reserve_account_dsra_section",
   "fieldtype": "Tab Break",
   "label": "Debt Service Reserve Account (DSRA)"
  },
  {
   "fieldname": "document_type",
   "fieldtype": "HTML",
   "label": "Document Type"
  },
  {
   "collapsible": 1,
   "depends_on": "eval: doc.product_name !== \"EA\" && doc.product_name !== \"REIT\" && doc.product_name !== \"INVIT\";",
   "fieldname": "encumbered_section",
   "fieldtype": "Section Break",
   "label": "Encumbered"
  },
  {
   "fieldname": "charge_holder_name",
   "fieldtype": "Data",
   "label": "Charge Holder Name"
  },
  {
   "fieldname": "charge_id_numberas_per_roc",
   "fieldtype": "Data",
   "label": "Charge ID Number(as per ROC)"
  },
  {
   "fieldname": "charge_amount",
   "fieldtype": "Data",
   "label": "Charge Amount"
  },
  {
   "fieldname": "charge_holder_noc",
   "fieldtype": "Data",
   "label": "Charge holder NOC"
  },
  {
   "fieldname": "column_break_31",
   "fieldtype": "Column Break"
  },
  {
   "fieldname": "charge_type",
   "fieldtype": "Data",
   "label": "Charge Type"
  },
  {
   "fieldname": "nature_of_charge",
   "fieldtype": "Data",
   "label": "Nature of Charge"
  },
  {
   "fieldname": "dsra_html",
   "fieldtype": "HTML",
   "label": "Debt Service Reserve Account (DSRA)"
  },
  {
   "collapsible": 1,
   "depends_on": "eval: doc.product_name !== \"EA\" && doc.product_name !== \"REIT\" && doc.product_name !== \"INVIT\";",
   "fieldname": "assets_owner_details_section",
   "fieldtype": "Section Break",
   "label": "Assets Owner Details"
  },
  {
   "fieldname": "assets_owner_details_html",
   "fieldtype": "HTML",
   "label": "Assets Owner Details"
  },
  {
   "collapsible": 1,
   "depends_on": "eval: doc.product_name !== \"EA\" && doc.product_name !== \"REIT\" && doc.product_name !== \"INVIT\";",
   "fieldname": "unencumbered_section",
   "fieldtype": "Section Break",
   "label": "Unencumbered"
  },
  {
   "collapsible": 1,
   "depends_on": "eval: doc.product_name !== \"EA\" && doc.product_name !== \"REIT\" && doc.product_name !== \"INVIT\";",
   "fieldname": "guarantee_section",
   "fieldtype": "Tab Break",
   "label": "Guarantee"
  },
  {
   "fieldname": "guarantee_html",
   "fieldtype": "HTML",
   "label": "Guarantee"
  },
  {
   "fieldname": "cnp_customer_code",
   "fieldtype": "Link",
   "label": "Customer Code",
   "options": "Customer",
   "read_only": 1
  },
  {
   "fieldname": "product_name",
   "fieldtype": "Link",
   "in_list_view": 1,
   "label": "Product Name",
   "options": "Item",
   "read_only": 1
  },
  {
   "fieldname": "transaction_immovable",
   "fieldtype": "Link",
   "label": "Asset ID (Immovable Asset)",
   "options": "Transaction Details Immovable Asset"
  },
  {
   "fieldname": "transaction_motor",
   "fieldtype": "Link",
   "label": "Asset ID (Motor Vehicle)",
   "options": "Transaction Details Motor Vehicle"
  },
  {
   "fieldname": "transaction_intangible",
   "fieldtype": "Link",
   "label": "Asset ID (Intangible Asset)",
   "options": "Transaction Details Intangible Asset"
  },
  {
   "fieldname": "transaction_financial",
   "fieldtype": "Link",
   "label": "Asset ID (Financial Asset)",
   "options": "Transaction Details Financial Asset"
  },
  {
   "fieldname": "transaction_assignment",
   "fieldtype": "Link",
   "label": "Asset ID (Assignment of Rights)",
   "options": "Transaction Details Assignment of Rights"
  },
  {
   "fieldname": "transaction_guarantee",
   "fieldtype": "Link",
   "label": "Asset ID (Guarantee)",
   "options": "Transaction Details Guarantee"
  },
  {
   "fieldname": "transaction_movable_fixed",
   "fieldtype": "Link",
   "label": "Asset ID (Movable Fixed Asset)",
   "options": "Transaction Details Movable Fixed Asset"
  },
  {
   "fieldname": "transaction_current",
   "fieldtype": "Link",
   "label": "Asset ID (Current Asset)",
   "options": "Transaction Details Current Asset"
  },
  {
   "fieldname": "transaction_dsra",
   "fieldtype": "Link",
   "label": "Asset ID (Debt Service Reserve Account (DSRA))",
   "options": "Transaction Details DSRA"
  },
  {
   "fieldname": "file_name",
   "fieldtype": "Text",
   "hidden": 1,
   "label": "file_name"
  },
  {
   "depends_on": "eval: doc.product_name === \"EA\";",
   "fieldname": "transaction_details_section",
   "fieldtype": "Section Break",
   "label": "Transaction Details"
  },
  {
   "fieldname": "type_of_services",
   "fieldtype": "Select",
   "label": "Type of services",
   "options": "Cash\nDemat\nCash and Demat\nOther"
  },
  {
   "fieldname": "constitution_party_wise",
   "fieldtype": "Select",
   "label": "Constitution Party Wise",
   "options": "Individual\nHUF\nLLP\nCompany\nTrust"
  },
  {
   "fieldname": "no_escrow_parties",
   "fieldtype": "Data",
   "label": "No. Escrow Parties"
  },
  {
   "depends_on": "eval: doc.type_of_services == \"Other\"",
   "fieldname": "other_services",
   "fieldtype": "Data",
   "label": "Other Services"
  },
  {
   "fieldname": "party_role",
   "fieldtype": "Select",
   "label": "Party Role",
   "options": "Buyer\nSeller\nothers"
  },
  {
   "fieldname": "column_break_23",
   "fieldtype": "Column Break"
  },
  {
   "fieldname": "person_name",
   "fieldtype": "Data",
   "label": "Person Name",
   "read_only": 1
  },
  {
   "fieldname": "mandate_name",
   "fieldtype": "Data",
   "label": "Mandate Name",
   "read_only": 1
  },
  {
   "fieldname": "column_break_5",
   "fieldtype": "Column Break"
  },
  {
   "fieldname": "opportunity",
   "fieldtype": "Link",
   "label": "Opportunity",
   "options": "Opportunity",
   "read_only": 1
  },
  {
   "fieldname": "quotation",
   "fieldtype": "Link",
   "label": "Quotation",
   "options": "Quotation",
   "read_only": 1
  },
  {
   "fieldname": "column_break_8",
   "fieldtype": "Column Break"
  },
  {
   "collapsible": 1,
   "depends_on": "eval: doc.product_name === \"REIT\" || doc.product_name === \"INVIT\";",
   "fieldname": "name_of_sponsor_section",
   "fieldtype": "Section Break",
   "label": "Name of Sponsor"
  },
  {
   "fieldname": "canopi_transaction_details_sponsor",
   "fieldtype": "Table",
   "options": "Canopi Transaction Details Sponsor"
  },
  {
   "collapsible": 1,
   "depends_on": "eval: doc.product_name === \"REIT\" || doc.product_name === \"INVIT\";",
   "fieldname": "name_of_settlor_section",
   "fieldtype": "Section Break",
   "label": "Name of Settlor"
  },
  {
   "fieldname": "canopi_transaction_details_settlor",
   "fieldtype": "Table",
   "options": "Canopi Transaction Details Settlor"
  },
  {
   "collapsible": 1,
   "depends_on": "eval: doc.product_name === \"REIT\" || doc.product_name === \"INVIT\";",
   "fieldname": "name_of_trust_section",
   "fieldtype": "Section Break",
   "label": "Name Of Trust"
  },
  {
   "collapsible": 1,
   "depends_on": "eval: doc.product_name === \"REIT\" || doc.product_name === \"INVIT\";",
   "fieldname": "spvs_section",
   "fieldtype": "Section Break",
   "label": "SPVs"
  },
  {
   "depends_on": "eval: doc.product_name === \"REIT\" || doc.product_name === \"INVIT\";",
   "fieldname": "dees_section",
   "fieldtype": "Section Break",
   "label": "Fees"
  },
  {
   "fieldname": "initial_fee",
   "fieldtype": "Int",
   "label": "Initial Fee"
  },
  {
   "fieldname": "column_break_42",
   "fieldtype": "Column Break"
  },
  {
   "fieldname": "annual_fee",
   "fieldtype": "Int",
   "label": "Annual Fee"
  },
  {
   "fieldname": "column_break_44",
   "fieldtype": "Column Break"
  },
  {
   "fieldname": "one_time_fee",
   "fieldtype": "Int",
   "label": "One Time Fee"
  },
  {
   "fieldname": "name_of_trust",
   "fieldtype": "Data",
   "label": "Name Of Trust"
  },
  {
   "fieldname": "no_of_spvs",
   "fieldtype": "Int",
   "label": "No. of SPVs (Only numbers allowed)",
   "mandatory_depends_on": "eval: doc.product_name === \"REIT\";"
  },
  {
   "fieldname": "number_of_projects",
   "fieldtype": "Int",
   "label": "Number of Projects (Only numbers allowed)",
   "mandatory_depends_on": "eval: doc.product_name === \"REIT\";"
  },
  {
   "fieldname": "valuation_of_trust_approx",
   "fieldtype": "Int",
   "label": "Valuation of Trust (approx.)"
  },
  {
   "fieldname": "upfront_acquire",
   "fieldtype": "Int",
   "label": "Upfront Acquire"
  },
  {
   "fieldname": "column_break_45",
   "fieldtype": "Column Break"
  },
  {
   "fieldname": "investment_manager_name",
   "fieldtype": "Data",
   "label": "Investment Manager Name"
  },
  {
   "fieldname": "to_be_acquire",
   "fieldtype": "Int",
   "label": "To be Acquire"
  },
  {
   "fieldname": "sector",
   "fieldtype": "Select",
   "label": "Sector",
   "mandatory_depends_on": "eval: doc.product_name === \"REIT\";",
   "options": "Transport\nEnergy\nWater & Sanitation\nCommunication\nSocial and Commercial Infrastructure"
  },
  {
   "fieldname": "project_manager_name",
   "fieldtype": "Data",
   "label": "Project manager name"
  },
  {
   "fieldname": "product_type",
   "fieldtype": "Select",
   "label": "Type",
   "mandatory_depends_on": "eval: doc.product_name === \"REIT\";",
   "options": "Public\nPrivate"
  },
  {
   "fieldname": "trust_size_in_crores",
   "fieldtype": "Int",
   "label": "Trust Size(In crores)",
   "mandatory_depends_on": "eval: doc.product_name === \"REIT\";"
  },
  {
   "fieldname": "activities_tab",
   "fieldtype": "Tab Break",
   "label": "Activities"
  },
  {
   "fieldname": "open_activities_html",
   "fieldtype": "HTML",
   "label": "Open Activities HTML"
  },
  {
   "fieldname": "all_activities_section",
   "fieldtype": "Section Break",
   "label": "All Activities"
  },
  {
   "fieldname": "all_activities_html",
   "fieldtype": "HTML",
   "label": "All Activities HTML"
  },
  {
   "fieldname": "notes_tab",
   "fieldtype": "Tab Break",
   "label": "Comments"
  },
  {
   "fieldname": "notes_html",
   "fieldtype": "HTML",
   "label": "Notes HTML"
  },
  {
   "fieldname": "notes",
   "fieldtype": "Table",
   "hidden": 1,
   "label": "Notes",
   "options": "CRM Note"
  },
  {
   "fieldname": "transaction_details_tab",
   "fieldtype": "Tab Break",
   "label": "Transaction Details"
  },
  {
   "depends_on": "eval:doc.quotation && !doc.__islocal",
   "fieldname": "view_offer_letter",
   "fieldtype": "HTML"
  },
  {
   "collapsible": 1,
   "depends_on": "eval:doc.product_name==\"DTE\"",
   "fieldname": "isin_info_section",
   "fieldtype": "Section Break",
   "label": "ISIN Info"
  },
  {
   "fieldname": "face_value",
   "fieldtype": "Int",
   "label": "Face Value"
  },
  {
   "fieldname": "column_break_xjqcr",
   "fieldtype": "Column Break"
  },
  {
   "default": "0",
   "fieldname": "guaranteed",
   "fieldtype": "Check",
   "label": "Guaranteed"
  },
  {
   "fieldname": "column_break_hmvin",
   "fieldtype": "Column Break"
  },
  {
   "fieldname": "taxable",
   "fieldtype": "Select",
   "label": "Taxable/Taxfree",
   "options": "\nTaxable\nTaxfree"
  },
  {
   "fieldname": "mode_of_allotment",
   "fieldtype": "Select",
   "label": "Mode of Allotment",
   "options": "\nDemat\nPhyscial\nBoth"
  },
  {
   "default": "0",
   "fieldname": "redeemable",
   "fieldtype": "Check",
   "label": "Redeemable"
  },
  {
   "default": "0",
   "fieldname": "secured",
   "fieldtype": "Check",
   "label": "Secured"
  },
  {
   "default": "0",
   "fieldname": "series_allowed",
   "fieldtype": "Check",
   "label": "Series Allowed"
  },
  {
   "fieldname": "listedunlisted",
   "fieldtype": "Select",
   "label": "Listed/Unlisted",
   "options": "\nListed\nUnlisted"
  },
  {
   "fieldname": "privatepublic",
   "fieldtype": "Select",
   "label": "Private/Public",
   "options": "\nPrivate\nPublic"
  },
  {
   "fieldname": "tenor_section",
   "fieldtype": "Section Break",
   "label": "Tenor"
  },
  {
   "fetch_from": "opportunity.cnp_tenor_years",
   "fieldname": "years",
   "fieldtype": "Int",
   "label": "Years"
  },
  {
   "fieldname": "column_break_4wx5c",
   "fieldtype": "Column Break"
  },
  {
   "fetch_from": "opportunity.cnp_tenor_months",
   "fieldname": "months",
   "fieldtype": "Int",
   "label": "Months"
  },
  {
   "fieldname": "column_break_tvcfi",
   "fieldtype": "Column Break"
  },
  {
   "fetch_from": "opportunity.cnp_tenor_days",
   "fieldname": "days",
   "fieldtype": "Int",
   "label": "Days"
  }
 ],
 "index_web_pages_for_search": 1,
 "is_submittable": 1,
 "links": [],
 "modified": "2023-09-26 13:36:04.480982",
 "modified_by": "Administrator",
 "module": "Trusteeship Platform",
 "name": "Transaction Details",
 "naming_rule": "Expression (old style)",
 "owner": "Administrator",
 "permissions": [
  {
   "create": 1,
   "delete": 1,
   "email": 1,
   "export": 1,
   "print": 1,
   "read": 1,
   "report": 1,
   "role": "System Manager",
   "share": 1,
   "write": 1
  }
 ],
 "sort_field": "modified",
 "sort_order": "DESC",
 "states": []
}
