{
 "actions": [],
 "allow_copy": 1,
 "allow_rename": 1,
 "creation": "2022-08-14 09:15:51.805233",
 "doctype": "DocType",
 "editable_grid": 1,
 "engine": "InnoDB",
 "field_order": [
  "canopi_documentation_name",
  "document_code",
  "document_name",
  "upload_date",
  "execution_version",
  "single_signing",
  "signing_party",
  "signatory",
  "signatory_poa",
  "signatory_text",
  "location",
  "execution_date",
  "comments",
  "status",
  "send_email",
  "approval_if_required",
  "send_to_legal",
  "purpose_of_legal",
  "remarks_by_legal",
  "file_path",
  "file_name",
  "approval",
  "document_custody_with",
  "axis_bank_branch_name",
  "third_party_name",
  "document_type",
  "executed_location"
 ],
 "fields": [
  {
   "fieldname": "canopi_documentation_name",
   "fieldtype": "Link",
   "label": "Canopi Documentation Name",
   "options": "Canopi Documentation"
  },
  {
   "fieldname": "document_name",
   "fieldtype": "Data",
   "label": "Document Name"
  },
  {
   "fieldname": "execution_version",
   "fieldtype": "Data",
   "label": "Execution Version"
  },
  {
   "fieldname": "signing_party",
   "fieldtype": "Select",
   "label": "Signing Party-ATSL",
   "options": "\nATSL\nPOA"
  },
  {
   "fieldname": "signatory",
   "fieldtype": "Link",
   "label": "Signatory-ATSL",
   "options": "User"
  },
  {
   "fieldname": "signatory_text",
   "fieldtype": "Data",
   "label": "Signatory Name - Party"
  },
  {
   "fieldname": "location",
   "fieldtype": "Link",
   "label": "Custody Location",
   "options": "Location"
  },
  {
   "fieldname": "execution_date",
   "fieldtype": "Date",
   "label": "Execution Date"
  },
  {
   "fieldname": "comments",
   "fieldtype": "Small Text",
   "label": "Comments"
  },
  {
   "default": "Open",
   "fieldname": "status",
   "fieldtype": "Data",
   "label": "Status",
   "read_only": 1
  },
  {
   "fieldname": "send_email",
   "fieldtype": "Select",
   "label": "Send Email ",
   "options": "No\nYes"
  },
  {
   "fieldname": "approval_if_required",
   "fieldtype": "Select",
   "label": "Approval If Required",
   "options": "No\nYes"
  },
  {
   "fieldname": "send_to_legal",
   "fieldtype": "Select",
   "label": "Send to Legal",
   "options": "No\nYes"
  },
  {
   "fieldname": "file_path",
   "fieldtype": "Text",
   "label": "File Path"
  },
  {
   "fieldname": "file_name",
   "fieldtype": "Data",
   "label": "File Name"
  },
  {
   "fieldname": "document_code",
   "fieldtype": "Data",
   "label": "Document Code"
  },
  {
   "fieldname": "approval",
   "fieldtype": "Link",
   "hidden": 1,
   "label": "Approval",
   "options": "Canopi Approval"
  },
  {
   "fieldname": "purpose_of_legal",
   "fieldtype": "Select",
   "label": "Purpose of Legal",
   "options": "\nVetting\nNoting"
  },
  {
   "fieldname": "remarks_by_legal",
   "fieldtype": "Data",
   "label": "Remarks by Legal"
  },
  {
   "fieldname": "signatory_poa",
   "fieldtype": "Link",
   "label": "Signatory-POA",
   "options": "Canopi POA"
  },
  {
   "default": "0",
   "fieldname": "single_signing",
   "fieldtype": "Check",
   "label": "Single Signing Required"
  },
  {
   "fieldname": "document_custody_with",
   "fieldtype": "Select",
   "label": "Document Custody with",
   "options": "ATSL\nAxis Bank\nClient\nThird Party"
  },
  {
   "depends_on": "eval:doc.document_custody_with=='Axis Bank'",
   "fieldname": "axis_bank_branch_name",
   "fieldtype": "Data",
   "in_list_view": 1,
   "label": "Axis Bank Branch Name",
   "mandatory_depends_on": "eval:doc.document_custody_with=='Axis Bank'"
  },
  {
   "depends_on": "eval:doc.document_custody_with=='Third Party'",
   "fieldname": "third_party_name",
   "fieldtype": "Data",
   "in_list_view": 1,
   "label": "Third Party Name",
   "mandatory_depends_on": "eval:doc.document_custody_with=='Third Party'"
  },
  {
   "fieldname": "document_type",
   "fieldtype": "Select",
   "label": "Document Type",
   "options": "Original\nCTC\nPhotocopy"
  },
  {
   "fieldname": "executed_location",
   "fieldtype": "Text",
   "label": "Executed Location"
  },
  {
   "fieldname": "upload_date",
   "fieldtype": "Date",
   "label": "Upload Date"
  }
 ],
 "hide_toolbar": 1,
 "index_web_pages_for_search": 1,
 "links": [],
 "modified": "2023-09-27 14:50:18.184326",
 "modified_by": "Administrator",
 "module": "Trusteeship Platform",
 "name": "Canopi Other Documents Post Execution",
 "owner": "Administrator",
 "permissions": [
  {
   "create": 1,
   "delete": 1,
   "email": 1,
   "export": 1,
   "print": 1,
   "read": 1,
   "report": 1,
   "role": "System Manager",
   "share": 1,
   "write": 1
  }
 ],
 "sort_field": "modified",
 "sort_order": "DESC",
 "states": []
}
