{
 "actions": [],
 "allow_rename": 1,
 "creation": "2023-05-11 18:42:34.561171",
 "default_view": "List",
 "doctype": "DocType",
 "editable_grid": 1,
 "engine": "InnoDB",
 "field_order": [
  "particulars",
  "particulars_status",
  "remarks"
 ],
 "fields": [
  {
   "fieldname": "particulars",
   "fieldtype": "Long Text",
   "in_list_view": 1,
   "label": "Particulars",
   "read_only": 1
  },
  {
   "fieldname": "particulars_status",
   "fieldtype": "Select",
   "in_list_view": 1,
   "label": "Yes/No/Not Applicable/Not Received",
   "options": "\nYes\nNo\nNot Applicable\nNot Received"
  },
  {
   "fieldname": "remarks",
   "fieldtype": "Data",
   "in_list_view": 1,
   "label": "Remarks"
  }
 ],
 "index_web_pages_for_search": 1,
 "istable": 1,
 "links": [],
 "modified": "2023-08-25 21:58:55.961788",
 "modified_by": "Administrator",
 "module": "Trusteeship Platform",
 "name": "Canopi Annexure B Checklist",
 "owner": "Administrator",
 "permissions": [],
 "sort_field": "modified",
 "sort_order": "DESC",
 "states": []
}
