{
 "actions": [],
 "allow_rename": 1,
 "autoname": "FD.######",
 "creation": "2022-09-18 14:20:29.168051",
 "doctype": "DocType",
 "editable_grid": 1,
 "engine": "InnoDB",
 "field_order": [
  "office",
  "account_no",
  "account_details_section",
  "account_type",
  "bank_code",
  "branch_code",
  "entered_on_date",
  "type_of_deposit",
  "deposit_amount",
  "interest_rate",
  "interest_payment_frequency",
  "frequency_sync_with",
  "amount_from_renewals",
  "source_gl_access_code",
  "remarks",
  "column_break_15",
  "contract_number",
  "description",
  "currency",
  "effective_date",
  "tenor_month",
  "tenor_days",
  "maturity_date",
  "maturity_value",
  "amount_from_bank_account",
  "source_of_renewal",
  "amended_from",
  "transaction_details_section",
  "transaction_details",
  "cnp_status",
  "email_token",
  "email_token_expiry"
 ],
 "fields": [
  {
   "fieldname": "office",
   "fieldtype": "Link",
   "in_list_view": 1,
   "label": "Office ",
   "options": "Company",
   "reqd": 1
  },
  {
   "fieldname": "account_no",
   "fieldtype": "Link",
   "in_list_view": 1,
   "label": "Account No",
   "options": "Bank Account",
   "reqd": 1
  },
  {
   "fieldname": "account_details_section",
   "fieldtype": "Section Break",
   "label": "Account Details"
  },
  {
   "fieldname": "account_type",
   "fieldtype": "Data",
   "label": "Account Type"
  },
  {
   "fieldname": "bank_code",
   "fieldtype": "Data",
   "label": "Bank Code"
  },
  {
   "fieldname": "branch_code",
   "fieldtype": "Data",
   "label": "Branch Code"
  },
  {
   "fieldname": "entered_on_date",
   "fieldtype": "Date",
   "label": "Entered on Date (for Accounting)"
  },
  {
   "fieldname": "type_of_deposit",
   "fieldtype": "Select",
   "label": "Type of Deposit",
   "options": "Fixed Deposit\nReinvestment Deposit"
  },
  {
   "fieldname": "deposit_amount",
   "fieldtype": "Float",
   "label": "Deposit Amount",
   "precision": "2"
  },
  {
   "fieldname": "interest_rate",
   "fieldtype": "Percent",
   "label": "Interest Rate",
   "precision": "2"
  },
  {
   "fieldname": "interest_payment_frequency",
   "fieldtype": "Select",
   "label": "Interest Payment Frequency",
   "options": "Monthly\nQuarterly\nHalf yearly\nYearly\nAt maturity"
  },
  {
   "fieldname": "frequency_sync_with",
   "fieldtype": "Select",
   "label": "Frequency Sync with",
   "options": "Deposit date\nCalendar date"
  },
  {
   "fieldname": "amount_from_renewals",
   "fieldtype": "Float",
   "label": "Amount from Renewals",
   "precision": "2"
  },
  {
   "fieldname": "source_gl_access_code",
   "fieldtype": "Link",
   "label": "Source GL Access Code",
   "options": "Account"
  },
  {
   "fieldname": "remarks",
   "fieldtype": "Small Text",
   "label": "Remarks"
  },
  {
   "fieldname": "column_break_15",
   "fieldtype": "Column Break"
  },
  {
   "fieldname": "contract_number",
   "fieldtype": "Data",
   "label": "Contract number"
  },
  {
   "fieldname": "description",
   "fieldtype": "Data",
   "label": "Description"
  },
  {
   "fieldname": "currency",
   "fieldtype": "Link",
   "label": "Currency",
   "options": "Currency"
  },
  {
   "fieldname": "effective_date",
   "fieldtype": "Date",
   "label": "Effective Date (Transaction Date)"
  },
  {
   "fieldname": "tenor_month",
   "fieldtype": "Int",
   "label": "Tenor Month"
  },
  {
   "fieldname": "tenor_days",
   "fieldtype": "Int",
   "label": "Tenor Days"
  },
  {
   "fieldname": "maturity_date",
   "fieldtype": "Date",
   "label": "Maturity Date"
  },
  {
   "fieldname": "maturity_value",
   "fieldtype": "Float",
   "label": "Maturity Value",
   "precision": "2"
  },
  {
   "fieldname": "amount_from_bank_account",
   "fieldtype": "Float",
   "label": "Amount From Bank Account",
   "precision": "2"
  },
  {
   "fieldname": "source_of_renewal",
   "fieldtype": "Link",
   "label": "Source of Renewal (for Funds)",
   "options": "Account"
  },
  {
   "fieldname": "amended_from",
   "fieldtype": "Link",
   "label": "Amended From",
   "no_copy": 1,
   "options": "Canopi Fixed Deposit Opening Entry",
   "print_hide": 1,
   "read_only": 1
  },
  {
   "fieldname": "transaction_details_section",
   "fieldtype": "Section Break",
   "label": "Transaction Details"
  },
  {
   "fieldname": "transaction_details",
   "fieldtype": "Table",
   "options": "Canopi Fixed Deposit Transaction Details"
  },
  {
   "allow_on_submit": 1,
   "fieldname": "cnp_status",
   "fieldtype": "Data",
   "hidden": 1,
   "label": "cnp_status"
  },
  {
   "fieldname": "email_token",
   "fieldtype": "Long Text",
   "hidden": 1,
   "label": "email_token"
  },
  {
   "fieldname": "email_token_expiry",
   "fieldtype": "Datetime",
   "hidden": 1,
   "label": "email_token_expiry"
  }
 ],
 "index_web_pages_for_search": 1,
 "is_submittable": 1,
 "links": [
  {
   "link_doctype": "Canopi Fixed Deposit Maturity",
   "link_fieldname": "fd_opening"
  }
 ],
 "modified": "2023-07-31 09:28:10.751694",
 "modified_by": "Administrator",
 "module": "Trusteeship Platform - Accounts",
 "name": "Canopi Fixed Deposit Opening Entry",
 "naming_rule": "Expression (old style)",
 "owner": "Administrator",
 "permissions": [
  {
   "create": 1,
   "delete": 1,
   "email": 1,
   "export": 1,
   "print": 1,
   "read": 1,
   "report": 1,
   "role": "System Manager",
   "share": 1,
   "write": 1
  }
 ],
 "sort_field": "modified",
 "sort_order": "DESC",
 "states": []
}
