{
 "actions": [],
 "allow_rename": 1,
 "creation": "2022-10-16 13:15:07.028453",
 "doctype": "DocType",
 "editable_grid": 1,
 "engine": "InnoDB",
 "field_order": [
  "initial_investor_isin",
  "isin",
  "cash_flow",
  "event_record",
  "due_date",
  "date_amount",
  "payable_per_unit",
  "payment_actual_payment",
  "date_amount_of_interest",
  "amount_redeemed_outstanding",
  "change_in_frequency_of_payment",
  "in_frequency_of_payment_reason",
  "non_delay_payment"
 ],
 "fields": [
  {
   "fieldname": "cash_flow",
   "fieldtype": "Data",
   "label": "Cash flow"
  },
  {
   "fieldname": "event_record",
   "fieldtype": "Data",
   "label": "Event record"
  },
  {
   "fieldname": "due_date",
   "fieldtype": "Date",
   "label": "Due Date"
  },
  {
   "fieldname": "date_amount",
   "fieldtype": "Float",
   "label": "Date Amount",
   "precision": "2"
  },
  {
   "fieldname": "payable_per_unit",
   "fieldtype": "Float",
   "label": "Payable (per Unit) (in Rs.)*Date of",
   "precision": "2"
  },
  {
   "fieldname": "payment_actual_payment",
   "fieldtype": "Float",
   "label": "Payment*Actual Payment",
   "precision": "2"
  },
  {
   "fieldname": "date_amount_of_interest",
   "fieldtype": "Date",
   "label": "Date*Amount of interest"
  },
  {
   "fieldname": "amount_redeemed_outstanding",
   "fieldtype": "Float",
   "label": "paid/Amount Redeemed (in Rs.)*Amount Outstanding (in Rs. crs)*",
   "precision": "2"
  },
  {
   "fieldname": "change_in_frequency_of_payment",
   "fieldtype": "Select",
   "label": "(If )Change in Frequency of payment*",
   "options": "Yes\nNo"
  },
  {
   "fieldname": "in_frequency_of_payment_reason",
   "fieldtype": "Data",
   "label": "in Frequency of payment*Reason for"
  },
  {
   "fieldname": "non_delay_payment",
   "fieldtype": "Data",
   "label": "non-payment/ delay in payment*"
  },
  {
   "fieldname": "initial_investor_isin",
   "fieldtype": "Link",
   "label": "ISIN ID",
   "options": "Initial Investor ISIN"
  },
  {
   "fieldname": "isin",
   "fieldtype": "Data",
   "label": "ISIN"
  }
 ],
 "index_web_pages_for_search": 1,
 "istable": 1,
 "links": [],
 "modified": "2023-09-16 15:56:47.135435",
 "modified_by": "Administrator",
 "module": "Trusteeship Platform",
 "name": "Canopi ISIN Cashflow",
 "owner": "Administrator",
 "permissions": [],
 "sort_field": "modified",
 "sort_order": "DESC",
 "states": []
}
