{
 "actions": [],
 "creation": "2022-07-07 11:44:49.040799",
 "doctype": "DocType",
 "editable_grid": 1,
 "engine": "InnoDB",
 "field_order": [
  "cnp_customer_code",
  "cnp_customer_name",
  "operations",
  "product_name",
  "as_on_date",
  "asset_type",
  "asset_sub_type",
  "property_type",
  "asset_short_name",
  "percentage_of_ownership",
  "insurance_policy_number",
  "name_of_insurance_company",
  "amount",
  "beneficiary_name",
  "period_of_insurance",
  "column_break_13",
  "area_of_property",
  "area_unit",
  "negative_lien_on_asset",
  "nsdl",
  "code_in_far",
  "code_description_in_far",
  "latitudelongitude",
  "registration_number",
  "type_of_cover",
  "details_of_the_tenancyleaselicence",
  "value_of_asset_as_per_balance_sheet",
  "series_number"
 ],
 "fields": [
  {
   "fieldname": "as_on_date",
   "fieldtype": "Date",
   "label": "As On Date"
  },
  {
   "fieldname": "asset_short_name",
   "fieldtype": "Data",
   "label": "Asset Short Name"
  },
  {
   "fieldname": "asset_type",
   "fieldtype": "Link",
   "label": "Asset Type",
   "options": "Canopi Asset Type"
  },
  {
   "fieldname": "asset_sub_type",
   "fieldtype": "Select",
   "label": "Asset Sub Type"
  },
  {
   "fieldname": "property_type",
   "fieldtype": "Select",
   "label": "Property Type"
  },
  {
   "fieldname": "percentage_of_ownership",
   "fieldtype": "Data",
   "label": "Percentage of Ownership"
  },
  {
   "fieldname": "insurance_policy_number",
   "fieldtype": "Data",
   "label": "Insurance Policy Number"
  },
  {
   "fieldname": "name_of_insurance_company",
   "fieldtype": "Data",
   "label": "Name of Insurance company"
  },
  {
   "fieldname": "amount",
   "fieldtype": "Data",
   "label": "Amount"
  },
  {
   "fieldname": "beneficiary_name",
   "fieldtype": "Data",
   "label": "Beneficiary Name"
  },
  {
   "fieldname": "period_of_insurance",
   "fieldtype": "Data",
   "label": "Period of Insurance"
  },
  {
   "fieldname": "column_break_13",
   "fieldtype": "Column Break"
  },
  {
   "fieldname": "area_of_property",
   "fieldtype": "Data",
   "label": "Area of property"
  },
  {
   "fieldname": "area_unit",
   "fieldtype": "Data",
   "label": "Area Unit"
  },
  {
   "fieldname": "negative_lien_on_asset",
   "fieldtype": "Select",
   "label": "Negative Lien on Asset",
   "options": "Yes\nNo"
  },
  {
   "fieldname": "code_in_far",
   "fieldtype": "Data",
   "label": "Code in FAR"
  },
  {
   "fieldname": "code_description_in_far",
   "fieldtype": "Data",
   "label": "Code Description in FAR"
  },
  {
   "fieldname": "latitudelongitude",
   "fieldtype": "Data",
   "label": "Latitude/Longitude"
  },
  {
   "fieldname": "registration_number",
   "fieldtype": "Select",
   "label": "Registration Number"
  },
  {
   "fieldname": "type_of_cover",
   "fieldtype": "Select",
   "label": "Type of Cover"
  },
  {
   "fieldname": "details_of_the_tenancyleaselicence",
   "fieldtype": "Data",
   "label": "Details of the Tenancy/Lease/Licence"
  },
  {
   "fieldname": "value_of_asset_as_per_balance_sheet",
   "fieldtype": "Data",
   "label": "Value of Asset as per Balance sheet"
  },
  {
   "fieldname": "cnp_customer_code",
   "fieldtype": "Link",
   "in_list_view": 1,
   "label": "Customer Code",
   "options": "Customer",
   "reqd": 1,
   "set_only_once": 1
  },
  {
   "fieldname": "product_name",
   "fieldtype": "Link",
   "label": "Product Name",
   "options": "Item",
   "set_only_once": 1
  },
  {
   "fieldname": "cnp_customer_name",
   "fieldtype": "Data",
   "label": "Customer Name",
   "read_only": 1
  },
  {
   "fieldname": "operations",
   "fieldtype": "Link",
   "in_list_view": 1,
   "label": "CL Code",
   "options": "ATSL Mandate List",
   "reqd": 1
  },
  {
   "fieldname": "series_number",
   "fieldtype": "Int",
   "hidden": 1,
   "label": "Series Number",
   "no_copy": 1,
   "print_hide": 1
  },
  {
   "fieldname": "nsdl",
   "fieldtype": "Select",
   "label": "NSDL",
   "options": "Yes\nNo"
  }
 ],
 "index_web_pages_for_search": 1,
 "links": [],
 "modified": "2023-06-26 08:43:07.888233",
 "modified_by": "Administrator",
 "module": "Trusteeship Platform",
 "name": "Transaction Details Immovable Asset",
 "naming_rule": "Expression (old style)",
 "owner": "Administrator",
 "permissions": [
  {
   "create": 1,
   "delete": 1,
   "email": 1,
   "export": 1,
   "print": 1,
   "read": 1,
   "report": 1,
   "role": "System Manager",
   "share": 1,
   "write": 1
  }
 ],
 "search_fields": "cnp_customer_code,cnp_customer_name",
 "sort_field": "modified",
 "sort_order": "DESC",
 "states": []
}
