{
  "actions": [],
  "allow_rename": 1,
  "creation": "2023-03-05 23:07:49.360283",
  "doctype": "DocType",
  "editable_grid": 1,
  "engine": "InnoDB",
  "field_order": ["facility_name", "tranche_details", "no_of_tranches"],
  "fields": [
    {
      "fieldname": "facility_name",
      "fieldtype": "Link",
      "label": "Facility Name",
      "options": "Canopi FA Details"
    },
    {
      "fieldname": "tranche_details",
      "fieldtype": "Link",
      "in_list_view": 1,
      "label": "Tranche Details",
      "options": "Canopi Tranche Details",
      "reqd": 1
    },
    {
      "fieldname": "no_of_tranches",
      "fieldtype": "Int",
      "in_list_view": 1,
      "label": "No. Of Tranches",
      "reqd": 1
    }
  ],
  "index_web_pages_for_search": 1,
  "istable": 1,
  "links": [],
  "modified": "2023-03-05 23:07:49.360283",
  "modified_by": "Administrator",
  "module": "Trusteeship Platform",
  "name": "Canopi Tranche FA Details",
  "owner": "Administrator",
  "permissions": [],
  "sort_field": "modified",
  "sort_order": "DESC",
  "states": []
}
