{
 "actions": [],
 "autoname": "MOT.######",
 "creation": "2022-07-10 16:48:16.323164",
 "doctype": "DocType",
 "editable_grid": 1,
 "engine": "InnoDB",
 "field_order": [
  "cnp_customer_code",
  "cnp_customer_name",
  "operations",
  "product_name",
  "type_of_asset",
  "asset_sub_type",
  "asset_short_name",
  "asset_description",
  "vehical_number",
  "chasis_number",
  "valuation_agency",
  "valuation_amount",
  "valuation_date",
  "existing_document_list",
  "type_of_cover",
  "column_break_12",
  "negative_lien_on_asset",
  "nsdl",
  "code_in_far",
  "code_description_in_far",
  "registration_number",
  "insurance_policy_number",
  "name_of_insurance_company",
  "amount",
  "beneficiary_name",
  "value_of_the_asset_as_per_balance_sheet",
  "series_number"
 ],
 "fields": [
  {
   "fieldname": "type_of_asset",
   "fieldtype": "Link",
   "label": "Type of Asset",
   "options": "Canopi Asset Type"
  },
  {
   "fieldname": "asset_short_name",
   "fieldtype": "Data",
   "label": "Asset Short Name"
  },
  {
   "fieldname": "asset_description",
   "fieldtype": "Data",
   "label": "Asset Description"
  },
  {
   "fieldname": "vehical_number",
   "fieldtype": "Data",
   "label": "Vehical Number"
  },
  {
   "fieldname": "chasis_number",
   "fieldtype": "Data",
   "label": "Chasis Number"
  },
  {
   "fieldname": "valuation_agency",
   "fieldtype": "Data",
   "label": "Valuation Agency"
  },
  {
   "fieldname": "valuation_amount",
   "fieldtype": "Data",
   "label": "Valuation Amount"
  },
  {
   "fieldname": "valuation_date",
   "fieldtype": "Date",
   "label": "Valuation Date"
  },
  {
   "fieldname": "existing_document_list",
   "fieldtype": "Select",
   "label": "Existing Document List"
  },
  {
   "fieldname": "type_of_cover",
   "fieldtype": "Select",
   "label": "Type of Cover"
  },
  {
   "fieldname": "column_break_12",
   "fieldtype": "Column Break"
  },
  {
   "fieldname": "negative_lien_on_asset",
   "fieldtype": "Select",
   "label": "Negative Lien on Asset",
   "options": "Yes\nNo"
  },
  {
   "fieldname": "code_in_far",
   "fieldtype": "Select",
   "label": "Code in FAR"
  },
  {
   "fieldname": "code_description_in_far",
   "fieldtype": "Data",
   "label": "Code Description in FAR"
  },
  {
   "fieldname": "registration_number",
   "fieldtype": "Select",
   "label": "Registration Number"
  },
  {
   "fieldname": "insurance_policy_number",
   "fieldtype": "Data",
   "label": "Insurance Policy Number"
  },
  {
   "fieldname": "name_of_insurance_company",
   "fieldtype": "Data",
   "label": "Name of Insurance company"
  },
  {
   "fieldname": "amount",
   "fieldtype": "Data",
   "label": "Amount"
  },
  {
   "fieldname": "beneficiary_name",
   "fieldtype": "Data",
   "label": "Beneficiary Name"
  },
  {
   "fieldname": "value_of_the_asset_as_per_balance_sheet",
   "fieldtype": "Data",
   "label": "Value of the Asset as per Balance sheet"
  },
  {
   "fieldname": "cnp_customer_code",
   "fieldtype": "Link",
   "in_list_view": 1,
   "label": "Customer Code",
   "options": "Customer",
   "reqd": 1,
   "set_only_once": 1
  },
  {
   "fieldname": "product_name",
   "fieldtype": "Link",
   "label": "Product Name",
   "options": "Item",
   "set_only_once": 1
  },
  {
   "fieldname": "cnp_customer_name",
   "fieldtype": "Data",
   "label": "Customer Name",
   "read_only": 1
  },
  {
   "fieldname": "asset_sub_type",
   "fieldtype": "Select",
   "label": "Asset Sub Type"
  },
  {
   "fieldname": "operations",
   "fieldtype": "Link",
   "in_list_view": 1,
   "label": "CL Code",
   "options": "ATSL Mandate List",
   "reqd": 1
  },
  {
   "fieldname": "series_number",
   "fieldtype": "Int",
   "hidden": 1,
   "label": "Series Number",
   "no_copy": 1,
   "print_hide": 1
  },
  {
   "fieldname": "nsdl",
   "fieldtype": "Select",
   "label": "NSDL",
   "options": "Yes\nNo"
  }
 ],
 "index_web_pages_for_search": 1,
 "links": [],
 "modified": "2023-06-26 08:40:06.867082",
 "modified_by": "Administrator",
 "module": "Trusteeship Platform",
 "name": "Transaction Details Motor Vehicle",
 "naming_rule": "Expression (old style)",
 "owner": "Administrator",
 "permissions": [
  {
   "create": 1,
   "delete": 1,
   "email": 1,
   "export": 1,
   "print": 1,
   "read": 1,
   "report": 1,
   "role": "System Manager",
   "share": 1,
   "write": 1
  }
 ],
 "search_fields": "cnp_customer_code,cnp_customer_name",
 "sort_field": "modified",
 "sort_order": "DESC",
 "states": []
}
