{
  "actions": [],
  "autoname": "field:security_type_name",
  "creation": "2022-04-07 15:20:58.618346",
  "doctype": "DocType",
  "editable_grid": 1,
  "engine": "InnoDB",
  "field_order": ["security_type_name", "security_type"],
  "fields": [
    {
      "fieldname": "security_type_name",
      "fieldtype": "Data",
      "hidden": 1,
      "label": "Security Type",
      "unique": 1
    },
    {
      "fieldname": "security_type",
      "fieldtype": "Select",
      "in_list_view": 1,
      "label": "Security Type",
      "options": "\nImmovable Asset\nMovable Asset\nPledge\nPersonal Guarantee\nCorporate Guarantee\nNDU\nIntangible Asset\nMotor Vehicle\nFinancial Asset\nAssignment of Rights\nCurrent Asset\nDebt Service Reserve Account (DSRA)\nOthers",
      "reqd": 1,
      "set_only_once": 1
    }
  ],
  "index_web_pages_for_search": 1,
  "links": [],
  "modified": "2022-11-30 21:02:05.156576",
  "modified_by": "Administrator",
  "module": "Trusteeship Platform",
  "name": "Canopi Type of Security",
  "name_case": "Title Case",
  "naming_rule": "By fieldname",
  "owner": "Administrator",
  "permissions": [
    {
      "create": 1,
      "delete": 1,
      "email": 1,
      "export": 1,
      "print": 1,
      "read": 1,
      "report": 1,
      "role": "System Manager",
      "share": 1,
      "write": 1
    }
  ],
  "sort_field": "modified",
  "sort_order": "DESC",
  "states": []
}
