{
 "actions": [],
 "allow_rename": 1,
 "autoname": "field:name1",
 "creation": "2023-05-12 11:57:25.948504",
 "default_view": "List",
 "doctype": "DocType",
 "editable_grid": 1,
 "engine": "InnoDB",
 "field_order": [
  "name1"
 ],
 "fields": [
  {
   "fieldname": "name1",
   "fieldtype": "Data",
   "label": "Name",
   "unique": 1
  }
 ],
 "index_web_pages_for_search": 1,
 "links": [],
 "modified": "2023-05-16 11:23:37.514981",
 "modified_by": "Administrator",
 "module": "P2P",
 "name": "CP2P Payment Platform",
 "naming_rule": "By fieldname",
 "owner": "Administrator",
 "permissions": [
  {
   "create": 1,
   "delete": 1,
   "email": 1,
   "export": 1,
   "print": 1,
   "read": 1,
   "report": 1,
   "role": "System Manager",
   "share": 1,
   "write": 1
  },
  {
   "create": 1,
   "delete": 1,
   "email": 1,
   "export": 1,
   "print": 1,
   "read": 1,
   "report": 1,
   "role": "P2P Admin",
   "share": 1,
   "write": 1
  }
 ],
 "sort_field": "modified",
 "sort_order": "DESC",
 "states": []
}
