{
  "charts": [
    {
      "chart_name": "Incoming Leads",
      "label": "Lead Imports"
    }
  ],
  "content": "[{\"id\":\"_ITQU8Eydu\",\"type\":\"chart\",\"data\":{\"chart_name\":\"Lead Imports\",\"col\":12}},{\"id\":\"ZWcZ4jQzeG\",\"type\":\"spacer\",\"data\":{\"col\":12}},{\"id\":\"_tdSWKEveu\",\"type\":\"header\",\"data\":{\"text\":\"<span class=\\\"h4\\\">Your Shortcuts</span><br>\",\"col\":12}},{\"id\":\"w-LqAa2Dpy\",\"type\":\"shortcut\",\"data\":{\"shortcut_name\":\"Lead\",\"col\":4}},{\"id\":\"oqA-HCuGR2\",\"type\":\"shortcut\",\"data\":{\"shortcut_name\":\"Customer\",\"col\":4}},{\"id\":\"FyHtGadEiM\",\"type\":\"shortcut\",\"data\":{\"shortcut_name\":\"Dashboard\",\"col\":4}},{\"id\":\"XCaXLQIeib\",\"type\":\"shortcut\",\"data\":{\"shortcut_name\":\"Opportunity\",\"col\":3}},{\"id\":\"YDL8LscMOO\",\"type\":\"spacer\",\"data\":{\"col\":12}},{\"id\":\"swoVlVsO7E\",\"type\":\"header\",\"data\":{\"text\":\"<span class=\\\"h4\\\">Reports &amp; Masters<b></b></span>\",\"col\":12}},{\"id\":\"jzhQ7a0BDY\",\"type\":\"card\",\"data\":{\"card_name\":\"Sales Pipeline\",\"col\":4}}]",
  "creation": "2023-04-13 16:29:47.958148",
  "docstatus": 0,
  "doctype": "Workspace",
  "for_user": "",
  "hide_custom": 0,
  "icon": "crm",
  "idx": 0,
  "is_hidden": 0,
  "label": "MT Dashboard",
  "links": [
    {
      "hidden": 0,
      "is_query_report": 0,
      "label": "Sales Pipeline",
      "link_count": 4,
      "onboard": 0,
      "type": "Card Break"
    },
    {
      "hidden": 0,
      "is_query_report": 0,
      "label": "Lead",
      "link_count": 0,
      "link_to": "Lead",
      "link_type": "DocType",
      "onboard": 0,
      "type": "Link"
    },
    {
      "hidden": 0,
      "is_query_report": 0,
      "label": "Customer",
      "link_count": 0,
      "link_to": "Customer",
      "link_type": "DocType",
      "onboard": 0,
      "type": "Link"
    },
    {
      "hidden": 0,
      "is_query_report": 0,
      "label": "Contact",
      "link_count": 0,
      "link_to": "Contact",
      "link_type": "DocType",
      "onboard": 0,
      "type": "Link"
    },
    {
      "hidden": 0,
      "is_query_report": 0,
      "label": "Communication",
      "link_count": 0,
      "link_to": "Communication",
      "link_type": "DocType",
      "onboard": 0,
      "type": "Link"
    }
  ],
  "modified": "2023-04-25 11:04:05.499348",
  "modified_by": "Administrator",
  "module": "Trusteeship Platform - CRM",
  "name": "MT Dashboard",
  "number_cards": [],
  "owner": "Administrator",
  "parent_page": "",
  "public": 1,
  "quick_lists": [],
  "roles": [
    {
      "role": "Management Trainee"
    }
  ],
  "sequence_id": 1.0,
  "shortcuts": [
    {
      "color": "Grey",
      "doc_view": "List",
      "label": "Customer",
      "link_to": "Customer",
      "type": "DocType"
    },
    {
      "color": "Blue",
      "doc_view": "List",
      "format": "{} Open",
      "label": "Lead",
      "link_to": "Lead",
      "type": "DocType"
    },
    {
      "color": "Grey",
      "doc_view": "List",
      "label": "Dashboard",
      "link_to": "CRM",
      "type": "Dashboard"
    },
    {
      "color": "Grey",
      "doc_view": "List",
      "label": "Opportunity",
      "link_to": "Opportunity",
      "type": "DocType"
    }
  ],
  "title": "MT Dashboard"
}
