{
  "based_on": "creation",
  "chart_name": "Lead",
  "chart_type": "Count",
  "color": "#761ACB",
  "creation": "2023-04-13 14:13:04.126062",
  "docstatus": 0,
  "doctype": "Dashboard Chart",
  "document_type": "Lead",
  "dynamic_filters_json": "[]",
  "filters_json": "[[\"Lead\",\"status\",\"=\",\"Opportunity\",false]]",
  "group_by_type": "Count",
  "idx": 0,
  "is_public": 1,
  "is_standard": 1,
  "last_synced_on": "2023-04-13 14:02:10.790967",
  "modified": "2023-04-13 14:13:04.126062",
  "modified_by": "Administrator",
  "module": "Trusteeship Platform",
  "name": "Lead",
  "number_of_groups": 0,
  "owner": "Administrator",
  "parent_document_type": "",
  "roles": [],
  "source": "",
  "time_interval": "Daily",
  "timeseries": 1,
  "timespan": "Last Quarter",
  "type": "Line",
  "use_report_chart": 0,
  "value_based_on": "",
  "y_axis": []
}
