{
  "actions": [],
  "allow_rename": 1,
  "creation": "2022-12-14 13:42:06.287844",
  "doctype": "DocType",
  "editable_grid": 1,
  "engine": "InnoDB",
  "field_order": ["deviation_conditions_section", "deviation_conditions"],
  "fields": [
    {
      "fieldname": "deviation_conditions_section",
      "fieldtype": "Section Break",
      "label": "Deviation Conditions"
    },
    {
      "fieldname": "deviation_conditions",
      "fieldtype": "Table",
      "label": "Deviation Conditions",
      "options": "Canopi Workflow Deviation Permissions"
    }
  ],
  "index_web_pages_for_search": 1,
  "issingle": 1,
  "links": [],
  "modified": "2022-12-14 13:42:40.562782",
  "modified_by": "Administrator",
  "module": "Trusteeship Platform",
  "name": "Approval Settings",
  "owner": "Administrator",
  "permissions": [
    {
      "create": 1,
      "delete": 1,
      "email": 1,
      "print": 1,
      "read": 1,
      "role": "System Manager",
      "share": 1,
      "write": 1
    }
  ],
  "sort_field": "modified",
  "sort_order": "DESC",
  "states": []
}
