{
 "actions": [],
 "allow_rename": 1,
 "creation": "2023-08-31 12:12:25.794382",
 "doctype": "DocType",
 "editable_grid": 1,
 "engine": "InnoDB",
 "field_order": [
  "date_of_buying",
  "no_of_units",
  "nav",
  "amount"
 ],
 "fields": [
  {
   "fieldname": "date_of_buying",
   "fieldtype": "Date",
   "in_list_view": 1,
   "label": "Date of Buying"
  },
  {
   "fieldname": "no_of_units",
   "fieldtype": "Int",
   "in_list_view": 1,
   "label": "No. of Units"
  },
  {
   "fieldname": "nav",
   "fieldtype": "Int",
   "in_list_view": 1,
   "label": "NAV"
  },
  {
   "fieldname": "amount",
   "fieldtype": "Int",
   "in_list_view": 1,
   "label": "Amount",
   "read_only": 1
  }
 ],
 "index_web_pages_for_search": 1,
 "istable": 1,
 "links": [],
 "modified": "2023-08-31 12:12:25.794382",
 "modified_by": "Administrator",
 "module": "Trusteeship Platform",
 "name": "Canopi NAV Calculation",
 "owner": "Administrator",
 "permissions": [],
 "sort_field": "modified",
 "sort_order": "DESC",
 "states": []
}
