{
  "actions": [],
  "allow_rename": 1,
  "creation": "2022-10-16 11:41:39.864092",
  "doctype": "DocType",
  "editable_grid": 1,
  "engine": "InnoDB",
  "field_order": [
    "date_of_allotment",
    "allotment_quantity",
    "cumulative_quantity",
    "issue_price",
    "issue_size_in_cr",
    "cum_issue_size_in_cr",
    "total_amt_raised_cr",
    "cum_amt_raised_cr"
  ],
  "fields": [
    {
      "fieldname": "date_of_allotment",
      "fieldtype": "Date",
      "label": "Date of allotment"
    },
    {
      "fieldname": "allotment_quantity",
      "fieldtype": "Data",
      "label": "Allotment Quantity"
    },
    {
      "fieldname": "cumulative_quantity",
      "fieldtype": "Data",
      "label": "Cumulative Quantity"
    },
    {
      "fieldname": "issue_price",
      "fieldtype": "Data",
      "label": "Issue Price"
    },
    {
      "fieldname": "issue_size_in_cr",
      "fieldtype": "Data",
      "label": "Issue Size in cr"
    },
    {
      "fieldname": "cum_issue_size_in_cr",
      "fieldtype": "Data",
      "label": "Cum. Issue Size (in  Cr. )"
    },
    {
      "fieldname": "total_amt_raised_cr",
      "fieldtype": "Data",
      "label": "Total Amt Raised (in  Cr.)"
    },
    {
      "fieldname": "cum_amt_raised_cr",
      "fieldtype": "Data",
      "label": "Cum. Amt Raised (in  Cr.)"
    }
  ],
  "index_web_pages_for_search": 1,
  "istable": 1,
  "links": [],
  "modified": "2022-10-16 11:42:04.922598",
  "modified_by": "Administrator",
  "module": "Trusteeship Platform",
  "name": "Canopi ISIN Further Issue",
  "owner": "Administrator",
  "permissions": [],
  "sort_field": "modified",
  "sort_order": "DESC"
}
