{
 "actions": [],
 "creation": "2022-05-29 16:16:05.212109",
 "doctype": "DocType",
 "editable_grid": 1,
 "engine": "InnoDB",
 "field_order": [
  "existing_security_type",
  "change_in_security",
  "new_security_type",
  "justification"
 ],
 "fields": [
  {
   "fieldname": "existing_security_type",
   "fieldtype": "Link",
   "in_list_view": 1,
   "label": "Existing Security Type",
   "options": "Canopi Type of Security",
   "reqd": 1
  },
  {
   "fieldname": "new_security_type",
   "fieldtype": "Link",
   "in_list_view": 1,
   "label": "New Security Type",
   "mandatory_depends_on": "eval:doc.change_in_security===\"Yes\";",
   "options": "Canopi Type of Security"
  },
  {
   "fieldname": "change_in_security",
   "fieldtype": "Select",
   "in_list_view": 1,
   "label": "Change in Security",
   "options": "\nNo\nYes"
  },
  {
   "fieldname": "justification",
   "fieldtype": "Data",
   "in_list_view": 1,
   "label": "Justification",
   "mandatory_depends_on": "eval:doc.change_in_security===\"Yes\";"
  }
 ],
 "index_web_pages_for_search": 1,
 "istable": 1,
 "links": [],
 "modified": "2023-08-25 21:50:59.962346",
 "modified_by": "Administrator",
 "module": "Trusteeship Platform",
 "name": "Canopi Operations Security Type",
 "name_case": "Title Case",
 "owner": "Administrator",
 "permissions": [],
 "sort_field": "modified",
 "sort_order": "DESC",
 "states": []
}
