{
 "add_total_row": 0,
 "columns": [],
 "creation": "2023-05-15 10:51:12.453465",
 "disable_prepared_report": 0,
 "disabled": 0,
 "docstatus": 0,
 "doctype": "Report",
 "filters": [
  {
   "fieldname": "fiscal_year",
   "fieldtype": "Link",
   "label": "Fiscal Year",
   "mandatory": 1,
   "options": "Fiscal Year",
   "wildcard_filter": 0
  },
  {
   "fieldname": "company",
   "fieldtype": "Link",
   "label": "Company",
   "mandatory": 1,
   "options": "Company",
   "wildcard_filter": 0
  }
 ],
 "idx": 0,
 "is_standard": "Yes",
 "letter_head": "Canopi Footer",
 "modified": "2023-05-15 12:02:01.502432",
 "modified_by": "Administrator",
 "module": "Trusteeship Platform",
 "name": "Note 11 to 12",
 "prepared_report": 0,
 "ref_doctype": "Note",
 "report_name": "Note 11 to 12",
 "report_type": "Script Report",
 "roles": [
  {
   "role": "System Manager"
  },
  {
   "role": "Accounts Head"
  },
  {
   "role": "Accounts Manager"
  },
  {
   "role": "Accounts User"
  }
 ]
}
