{
 "actions": [],
 "allow_rename": 1,
 "autoname": "field:poa_holder_name",
 "creation": "2023-07-06 09:02:09.344903",
 "default_view": "List",
 "doctype": "DocType",
 "editable_grid": 1,
 "engine": "InnoDB",
 "field_order": [
  "poa_holder_name",
  "poa_expiry_date",
  "location"
 ],
 "fields": [
  {
   "fieldname": "poa_holder_name",
   "fieldtype": "Data",
   "in_list_view": 1,
   "label": "POA Holder Name",
   "reqd": 1,
   "unique": 1
  },
  {
   "fieldname": "poa_expiry_date",
   "fieldtype": "Date",
   "label": "POA Expiry Date",
   "reqd": 1
  },
  {
   "fieldname": "location",
   "fieldtype": "Table",
   "label": "Location",
   "options": "Canopi POA Location"
  }
 ],
 "index_web_pages_for_search": 1,
 "links": [],
 "modified": "2023-07-25 13:35:04.259964",
 "modified_by": "Administrator",
 "module": "Trusteeship Platform",
 "name": "Canopi POA",
 "naming_rule": "By fieldname",
 "owner": "Administrator",
 "permissions": [
  {
   "create": 1,
   "delete": 1,
   "email": 1,
   "export": 1,
   "print": 1,
   "read": 1,
   "report": 1,
   "role": "System Manager",
   "share": 1,
   "write": 1
  }
 ],
 "search_fields": "poa_expiry_date",
 "sort_field": "modified",
 "sort_order": "DESC",
 "states": [],
 "track_changes": 1
}
