{
 "actions": [],
 "autoname": "CUR.######",
 "creation": "2022-07-13 10:56:03.758387",
 "doctype": "DocType",
 "editable_grid": 1,
 "engine": "InnoDB",
 "field_order": [
  "cnp_customer_code",
  "cnp_customer_name",
  "operations",
  "product_name",
  "type_of_asset",
  "asset_sub_type",
  "asset_short_name",
  "asset_description",
  "value_of_the_asset_as_per_balance_sheet",
  "valuation_date",
  "negative_lien_on_assets",
  "column_break_9",
  "nsdl",
  "remarks",
  "insurance_policy_number",
  "name_of_insurance_company",
  "amount",
  "beneficiary_name",
  "type_of_cover",
  "series_number"
 ],
 "fields": [
  {
   "fieldname": "type_of_asset",
   "fieldtype": "Link",
   "label": "Type of Asset",
   "options": "Canopi Asset Type"
  },
  {
   "fieldname": "asset_sub_type",
   "fieldtype": "Select",
   "label": "Asset Sub Type"
  },
  {
   "fieldname": "asset_short_name",
   "fieldtype": "Data",
   "label": "Asset Short Name"
  },
  {
   "fieldname": "asset_description",
   "fieldtype": "Data",
   "label": "Asset Description"
  },
  {
   "fieldname": "value_of_the_asset_as_per_balance_sheet",
   "fieldtype": "Data",
   "label": "Value of the Asset as per Balance sheet"
  },
  {
   "fieldname": "valuation_date",
   "fieldtype": "Date",
   "label": "Valuation Date"
  },
  {
   "fieldname": "negative_lien_on_assets",
   "fieldtype": "Select",
   "label": "Negative Lien on Assets",
   "options": "Yes\nNo"
  },
  {
   "fieldname": "column_break_9",
   "fieldtype": "Column Break"
  },
  {
   "fieldname": "remarks",
   "fieldtype": "Small Text",
   "label": "Remarks"
  },
  {
   "fieldname": "insurance_policy_number",
   "fieldtype": "Data",
   "label": "Insurance Policy Number"
  },
  {
   "fieldname": "name_of_insurance_company",
   "fieldtype": "Data",
   "label": "Name of Insurance company"
  },
  {
   "fieldname": "amount",
   "fieldtype": "Data",
   "label": "Amount"
  },
  {
   "fieldname": "beneficiary_name",
   "fieldtype": "Data",
   "label": "Beneficiary Name"
  },
  {
   "fieldname": "type_of_cover",
   "fieldtype": "Data",
   "label": "Type of Cover"
  },
  {
   "fieldname": "cnp_customer_code",
   "fieldtype": "Link",
   "in_list_view": 1,
   "label": "Customer Code",
   "options": "Customer",
   "reqd": 1,
   "set_only_once": 1
  },
  {
   "fieldname": "product_name",
   "fieldtype": "Link",
   "label": "product Name",
   "options": "Item",
   "set_only_once": 1
  },
  {
   "fieldname": "cnp_customer_name",
   "fieldtype": "Data",
   "label": "Customer Name",
   "read_only": 1
  },
  {
   "fieldname": "operations",
   "fieldtype": "Link",
   "in_list_view": 1,
   "label": "CL Code",
   "options": "ATSL Mandate List",
   "reqd": 1
  },
  {
   "fieldname": "series_number",
   "fieldtype": "Int",
   "hidden": 1,
   "label": "Series Number",
   "no_copy": 1,
   "print_hide": 1
  },
  {
   "fieldname": "nsdl",
   "fieldtype": "Select",
   "label": "NSDL",
   "options": "Yes\nNo"
  }
 ],
 "index_web_pages_for_search": 1,
 "links": [],
 "modified": "2023-06-26 08:36:43.765777",
 "modified_by": "Administrator",
 "module": "Trusteeship Platform",
 "name": "Transaction Details Current Asset",
 "naming_rule": "Expression (old style)",
 "owner": "Administrator",
 "permissions": [
  {
   "create": 1,
   "delete": 1,
   "email": 1,
   "export": 1,
   "print": 1,
   "read": 1,
   "report": 1,
   "role": "System Manager",
   "share": 1,
   "write": 1
  }
 ],
 "search_fields": "cnp_customer_code,cnp_customer_name",
 "sort_field": "modified",
 "sort_order": "DESC",
 "states": []
}
