{
 "absolute_value": 0,
 "align_labels_right": 0,
 "creation": "2022-08-25 16:48:17.462765",
 "css": ".print-format {\n  margin-top: 0mm;\n  margin-right: 0mm;\n  margin-bottom: 0mm;\n  margin-left: 0mm;\n}\n\n.container {\n  height: 297mm;\n  text-align: justify;\n  text-justify: inter-word;\n  padding-left: 0mm;\n  padding-right: 0mm;\n  font-size: 12px;\n}\n\n.first-page {\n  padding-top: 10mm;\n  padding-left: 15mm;\n  padding-right: 15mm;\n  height: 228mm;\n}\n\n.first-page-sign{\n   padding-left: 15mm;\n  padding-right: 15mm;\n  height: 42mm;\n}\n\n.footer {\n  position: fixed;\n  width: 100%;\n}\n\n.watermark {\n  margin-top: 111mm;\n  height: 74mm;\n  width: 100%;\n  text-align: center;\n  position: fixed;\n\n  justify-content: center;\n  -webkit-transform: rotate(-45deg);\n  -moz-transform: rotate(-45deg);\n  -ms-transform: rotate(-45deg);\n  -o-transform: rotate(-45deg);\n}\n\n.watermark-text {\n  font-size: 200px;\n  font-weight: lighter;\n  color: rgba(0, 0, 0, 0.1);\n}\n\n\n.borderless td,\n.borderless th {\n    border: none !important;\n}\n\n.borderless tr,\n.borderless td {\n    padding: 6px !important;\n    line-height: 15px;\n}\n\n\n",
 "custom_format": 1,
 "default_print_language": "en",
 "disabled": 0,
 "doc_type": "Canopi Documentation",
 "docstatus": 0,
 "doctype": "Print Format",
 "font": "Default",
 "font_size": 0,
 "html": "<!DOCTYPE html>\n<html>\n\n<body>\n    <div class=\"container\">\n        {% if doc.is_annexure_draft == 1 %}\n         <div class=\"watermark\">\n            <p class=\"watermark-text\">Draft</p>\n        </div>\n        {% endif %}\n        <div class=\"first-page\">\n            <p><b>{{doc.serial_no}}</b><br /></p>\n            <br />\n            <p>\n                <b>To</b><br />\n                <b>Stock Exchange</b>\n            </p>\n            <br />\n            <p>Dear Sir / Madam</p>\n            <br />\n            <p>\n                <b>\n                    SUB.: {{doc.letter_subject}}\n                </b>\n            </p>\n            <br />\n            <p>\n                {{doc.letter_body}}\n            </p>\n            <br />\n        </div>\n         <div class=\"first-page-sign\">\n            <table style=\"width:100%\">\n                <tr>\n                    <td style=\"width: 60%\">\n                       <p>\n                {% if doc.letter_from == 'ATSL' %}\n                <b>For Axis Trustee Services Limited</b>\n                \n                {% elif doc.letter_from == 'AXIS' %}\n                <b>For Axis Bank Limited</b>\n                {% endif %}\n\n            </p>\n                    </td>\n                </tr>\n                <tr>\n                    <td style=\"width: 60%\">\n                        <br /><br /><br /><br />\n                        <p>\n                            {% if doc.annexure_b_authorised_signatory %}\n                            <b>{{doc.annexure_b_signatory_full_name}}</b>\n                            {% endif %}\n                            <br />\n                            {% if doc.annexure_b_signatory_designation %}\n                            <b>{{doc.annexure_b_signatory_designation}}</b>\n                            {% endif %}\n                        </p>\n                    </td>\n                    {% if doc.qr_code %}\n                    <td style=\"text-align: right;\">\n                        <img src=\"data:image/png;base64,{{doc.qr_code}}\" width=\"90\" height=\"90\" alt=\"\"/>\n                    </td>\n                    {% endif %}\n                </tr>\n            </table>\n            <br />\n        </div>\n\n        <div class=\"footer visible-pdf\">\n            {{footer}}\n        </div>\n\n    </div>\n    <div style=\"page-break-before: always;\"></div>\n\n</body>\n\n</html>",
 "idx": 0,
 "line_breaks": 0,
 "margin_bottom": 0.0,
 "margin_left": 0.0,
 "margin_right": 0.0,
 "margin_top": 0.0,
 "modified": "2023-05-18 15:47:51.773251",
 "modified_by": "Administrator",
 "module": "Trusteeship Platform",
 "name": "Annexure B",
 "owner": "Administrator",
 "print_format_builder": 0,
 "print_format_builder_beta": 0,
 "print_format_type": "Jinja",
 "raw_printing": 0,
 "show_section_headings": 0,
 "standard": "Yes"
}
