{
  "actions": [],
  "autoname": "format:{opportunity}-{product_name}",
  "creation": "2022-01-13 11:31:10.367987",
  "doctype": "DocType",
  "editable_grid": 1,
  "engine": "InnoDB",
  "field_order": [
    "opportunity",
    "product_name",
    "no_of_securities",
    "immovable_properties",
    "states_immovable_properties",
    "no_of_lenders",
    "listed_yes_no",
    "no_of_sellers",
    "fund_category",
    "assets",
    "da_yes_no",
    "fund_size_in_rs_cr",
    "payment_frequency",
    "whether_public_issue",
    "value_added_services",
    "column_break_16",
    "customize_section",
    "no_of_securities_check",
    "immovable_properties_check",
    "states_immovable_properties_check",
    "no_of_lenders_check",
    "listed_yes_no_check",
    "no_of_sellers_check",
    "fund_category_check",
    "column_break_23",
    "assets_check",
    "da_yes_no_check",
    "fund_size_in_rscr_check",
    "payment_frequency_mqh_check",
    "whether_public_issue_check",
    "value_added_services_check",
    "is_insertable",
    "is_saved_by_user"
  ],
  "fields": [
    {
      "depends_on": "eval:doc.no_of_securities_check === 1",
      "fieldname": "no_of_securities",
      "fieldtype": "Int",
      "label": "No. of securities"
    },
    {
      "depends_on": "eval:doc.immovable_properties_check === 1",
      "fieldname": "immovable_properties",
      "fieldtype": "Int",
      "label": "Immovable properties"
    },
    {
      "depends_on": "eval: doc.states_immovable_properties_check === 1",
      "fieldname": "states_immovable_properties",
      "fieldtype": "Int",
      "label": "States Immovable Properties"
    },
    {
      "depends_on": "eval: doc.no_of_lenders_check === 1",
      "fieldname": "no_of_lenders",
      "fieldtype": "Int",
      "label": "No. of Lenders"
    },
    {
      "depends_on": "eval: doc.no_of_sellers_check === 1",
      "fieldname": "no_of_sellers",
      "fieldtype": "Int",
      "label": "No. of sellers"
    },
    {
      "depends_on": "eval: doc.assets_check === 1",
      "fieldname": "assets",
      "fieldtype": "Int",
      "label": "Assets"
    },
    {
      "default": "No",
      "depends_on": "eval: doc.whether_public_issue_check === 1",
      "fieldname": "whether_public_issue",
      "fieldtype": "Select",
      "label": "Whether Public issue",
      "options": "Yes\nNo"
    },
    {
      "default": "1",
      "depends_on": "eval: doc.value_added_services_check === 1",
      "fieldname": "value_added_services",
      "fieldtype": "Int",
      "label": "Value added services",
      "no_copy": 1,
      "read_only": 1
    },
    {
      "default": "No",
      "depends_on": "eval:doc.listed_yes_no_check === 1",
      "fieldname": "listed_yes_no",
      "fieldtype": "Select",
      "label": "Listed (Yes/No)",
      "options": "Yes\nNo"
    },
    {
      "depends_on": "eval: doc.fund_category_check === 1",
      "fieldname": "fund_category",
      "fieldtype": "Select",
      "label": "Fund category (I/II/III)",
      "options": "\nI\nII\nIII"
    },
    {
      "depends_on": "eval: doc.da_yes_no_check === 1",
      "fieldname": "da_yes_no",
      "fieldtype": "Select",
      "label": "DA (Yes/No)",
      "options": "Yes\nNo"
    },
    {
      "depends_on": "eval: doc.payment_frequency_mqh_check === 1",
      "fieldname": "payment_frequency",
      "fieldtype": "Select",
      "label": "Payment frequency (M/Q/H)",
      "options": "\nM\nQ\nH"
    },
    {
      "fieldname": "product_name",
      "fieldtype": "Link",
      "in_list_view": 1,
      "label": "Product Name",
      "options": "Item",
      "read_only": 1,
      "reqd": 1
    },
    {
      "default": "0",
      "fieldname": "no_of_securities_check",
      "fieldtype": "Check",
      "label": "No. of securities"
    },
    {
      "default": "0",
      "fieldname": "immovable_properties_check",
      "fieldtype": "Check",
      "label": "Immovable properties "
    },
    {
      "default": "0",
      "fieldname": "states_immovable_properties_check",
      "fieldtype": "Check",
      "label": "States Immovable Properties "
    },
    {
      "default": "0",
      "fieldname": "no_of_lenders_check",
      "fieldtype": "Check",
      "label": "No. of Lenders "
    },
    {
      "default": "0",
      "fieldname": "no_of_sellers_check",
      "fieldtype": "Check",
      "label": "No. of sellers "
    },
    {
      "default": "0",
      "fieldname": "fund_category_check",
      "fieldtype": "Check",
      "label": "Fund category "
    },
    {
      "default": "0",
      "fieldname": "fund_size_in_rscr_check",
      "fieldtype": "Check",
      "label": "Fund size in Rs/Cr "
    },
    {
      "default": "0",
      "fieldname": "payment_frequency_mqh_check",
      "fieldtype": "Check",
      "label": "Payment frequency (M/Q/H)"
    },
    {
      "default": "0",
      "fieldname": "whether_public_issue_check",
      "fieldtype": "Check",
      "label": "Whether Public issue "
    },
    {
      "default": "0",
      "fieldname": "value_added_services_check",
      "fieldtype": "Check",
      "label": "Value added services"
    },
    {
      "default": "0",
      "fieldname": "listed_yes_no_check",
      "fieldtype": "Check",
      "label": "Listed (Yes/No)"
    },
    {
      "default": "0",
      "fieldname": "da_yes_no_check",
      "fieldtype": "Check",
      "label": "DA(Yes/No) "
    },
    {
      "collapsible": 1,
      "fieldname": "customize_section",
      "fieldtype": "Section Break",
      "hidden": 1,
      "label": "Customize"
    },
    {
      "default": "0",
      "fieldname": "assets_check",
      "fieldtype": "Check",
      "label": "Assets "
    },
    {
      "fieldname": "column_break_23",
      "fieldtype": "Column Break"
    },
    {
      "fieldname": "opportunity",
      "fieldtype": "Link",
      "label": "Opportunity",
      "options": "Opportunity",
      "reqd": 1,
      "set_only_once": 1
    },
    {
      "default": "0",
      "fieldname": "is_insertable",
      "fieldtype": "Check",
      "hidden": 1,
      "label": "is insertable"
    },
    {
      "depends_on": "eval: doc.fund_size_in_rscr_check === 1",
      "fieldname": "fund_size_in_rs_cr",
      "fieldtype": "Long Text",
      "label": "Fund size in Rs/Cr",
      "read_only": 1
    },
    {
      "default": "0",
      "fieldname": "is_saved_by_user",
      "fieldtype": "Check",
      "hidden": 1,
      "label": "is saved by user"
    },
    {
      "fieldname": "column_break_16",
      "fieldtype": "Column Break"
    }
  ],
  "hide_toolbar": 1,
  "index_web_pages_for_search": 1,
  "links": [],
  "modified": "2023-04-13 17:44:43.170723",
  "modified_by": "Administrator",
  "module": "Trusteeship Platform",
  "name": "Canopi Pricing Policy",
  "naming_rule": "Expression",
  "owner": "Administrator",
  "permissions": [
    {
      "create": 1,
      "delete": 1,
      "email": 1,
      "export": 1,
      "print": 1,
      "read": 1,
      "report": 1,
      "role": "System Manager",
      "share": 1,
      "write": 1
    }
  ],
  "sort_field": "modified",
  "sort_order": "DESC",
  "states": []
}
